2024-09-03 19:04:07 - Starting SprGbpApplication using Java 17.0.8 with PID 588 (C:\Workspace Java\Projet_GBP_V2\SPR-GBP\target\classes started by kevin in C:\Workspace Java\Projet_GBP_V2\SPR-GBP)
2024-09-03 19:04:07 - Running with Spring Boot v3.1.2, Spring v6.0.11
2024-09-03 19:04:07 - No active profile set, falling back to 1 default profile: "default"
2024-09-03 19:04:07 - Devtools property defaults active! Set 'spring.devtools.add-properties' to 'false' to disable
2024-09-03 19:04:07 - For additional web related logging consider setting the 'logging.level.web' property to 'DEBUG'
2024-09-03 19:04:09 - Bootstrapping Spring Data JPA repositories in DEFAULT mode.
2024-09-03 19:04:10 - Finished Spring Data repository scanning in 236 ms. Found 6 JPA repository interfaces.
2024-09-03 19:04:13 - Tomcat initialized with port(s): 8080 (http)
2024-09-03 19:04:13 - Initializing ProtocolHandler ["http-nio-8080"]
2024-09-03 19:04:13 - Starting service [Tomcat]
2024-09-03 19:04:13 - Starting Servlet engine: [Apache Tomcat/10.1.11]
2024-09-03 19:04:13 - Initializing Spring embedded WebApplicationContext
2024-09-03 19:04:13 - Root WebApplicationContext: initialization completed in 5899 ms
2024-09-03 19:04:14 - HHH000204: Processing PersistenceUnitInfo [name: default]
2024-09-03 19:04:14 - HHH000412: Hibernate ORM core version 6.2.6.Final
2024-09-03 19:04:14 - HHH000406: Using bytecode reflection optimizer
2024-09-03 19:04:14 - HHH000021: Bytecode provider name : bytebuddy
2024-09-03 19:04:15 - No LoadTimeWeaver setup: ignoring JPA class transformer
2024-09-03 19:04:15 - HikariPool-1 - Starting...
2024-09-03 19:04:16 - HikariPool-1 - Added connection org.postgresql.jdbc.PgConnection@77015492
2024-09-03 19:04:16 - HikariPool-1 - Start completed.
2024-09-03 19:04:17 - HHH000021: Bytecode provider name : bytebuddy
2024-09-03 19:04:19 - HHH000490: Using JtaPlatform implementation: [org.hibernate.engine.transaction.jta.platform.internal.NoJtaPlatform]
2024-09-03 19:04:19 - 
    alter table if exists bank_accounts 
       alter column creation_date set data type timestamp(6)
2024-09-03 19:04:19 - 
    alter table if exists bank_accounts 
       alter column update_date set data type timestamp(6)
2024-09-03 19:04:19 - 
    alter table if exists banking_transactions 
       alter column creation_date set data type timestamp(6)
2024-09-03 19:04:19 - 
    alter table if exists banking_transactions 
       alter column update_date set data type timestamp(6)
2024-09-03 19:04:19 - 
    alter table if exists csv_files 
       alter column creation_date set data type timestamp(6)
2024-09-03 19:04:19 - 
    alter table if exists csv_files 
       alter column update_date set data type timestamp(6)
2024-09-03 19:04:19 - 
    alter table if exists customers 
       alter column creation_date set data type timestamp(6)
2024-09-03 19:04:19 - 
    alter table if exists customers 
       alter column update_date set data type timestamp(6)
2024-09-03 19:04:20 - Initialized JPA EntityManagerFactory for persistence unit 'default'
2024-09-03 19:04:21 - Hibernate is in classpath; If applicable, HQL parser will be used.
2024-09-03 19:04:24 - spring.jpa.open-in-view is enabled by default. Therefore, database queries may be performed during view rendering. Explicitly configure spring.jpa.open-in-view to disable this warning
2024-09-03 19:04:26 - Will secure any request with [org.springframework.security.web.session.DisableEncodeUrlFilter@a64abfe, org.springframework.security.web.context.request.async.WebAsyncManagerIntegrationFilter@6871fc33, org.springframework.security.web.context.SecurityContextHolderFilter@64757f4e, org.springframework.security.web.header.HeaderWriterFilter@3b8e5d21, org.springframework.web.filter.CorsFilter@5a565cf3, org.springframework.security.web.authentication.logout.LogoutFilter@75ccd007, org.springframework.security.web.authentication.UsernamePasswordAuthenticationFilter@5d8624a, com.gbp_v2.SPRGBP.filters.RegistrationRequestFilter@107a0158, com.gbp_v2.SPRGBP.filters.JWTokenValidatorFilter@3f6e63f2, org.springframework.security.web.authentication.www.BasicAuthenticationFilter@337a21a0, com.gbp_v2.SPRGBP.filters.LogUserConnexion@58199048, com.gbp_v2.SPRGBP.filters.JWTokenGeneratorFilter@3040fe7c, org.springframework.security.web.savedrequest.RequestCacheAwareFilter@ffd8749, org.springframework.security.web.servletapi.SecurityContextHolderAwareRequestFilter@7a795537, org.springframework.security.web.authentication.AnonymousAuthenticationFilter@70f049ed, org.springframework.security.web.session.SessionManagementFilter@31e463c5, org.springframework.security.web.access.ExceptionTranslationFilter@3070364f, org.springframework.security.web.access.intercept.AuthorizationFilter@24507c6f]
2024-09-03 19:04:26 - 

********************************************************************
**********        Security debugging is enabled.       *************
**********    This may include sensitive information.  *************
**********      Do not use in a production system!     *************
********************************************************************


2024-09-03 19:04:27 - LiveReload server is running on port 35729
2024-09-03 19:04:27 - Starting ProtocolHandler ["http-nio-8080"]
2024-09-03 19:04:27 - Tomcat started on port(s): 8080 (http) with context path ''
2024-09-03 19:04:27 - Started SprGbpApplication in 21.956 seconds (process running for 23.798)
2024-09-03 19:04:47 - Initializing Spring DispatcherServlet 'dispatcherServlet'
2024-09-03 19:04:47 - Initializing Servlet 'dispatcherServlet'
2024-09-03 19:04:47 - Completed initialization in 2 ms
2024-09-03 19:04:47 - 

************************************************************

Request received for OPTIONS '/customer?email=martin.dupont@google.fr':

org.apache.catalina.connector.RequestFacade@6a1bb510

servletPath:/customer
pathInfo:null
headers: 
host: localhost:8080
connection: keep-alive
accept: */*
access-control-request-method: GET
access-control-request-headers: authorization,content-type,x-requested-with
origin: http://localhost:4200
user-agent: Mozilla/5.0 (Windows NT 10.0; Win64; x64) AppleWebKit/537.36 (KHTML, like Gecko) Chrome/128.0.0.0 Safari/537.36
sec-fetch-mode: cors
sec-fetch-site: same-site
sec-fetch-dest: empty
referer: http://localhost:4200/
accept-encoding: gzip, deflate, br, zstd
accept-language: fr-FR,fr;q=0.9,en-US;q=0.8,en;q=0.7


Security filter chain: [
  DisableEncodeUrlFilter
  WebAsyncManagerIntegrationFilter
  SecurityContextHolderFilter
  HeaderWriterFilter
  CorsFilter
  LogoutFilter
  UsernamePasswordAuthenticationFilter
  RegistrationRequestFilter
  JWTokenValidatorFilter
  BasicAuthenticationFilter
  LogUserConnexion
  JWTokenGeneratorFilter
  RequestCacheAwareFilter
  SecurityContextHolderAwareRequestFilter
  AnonymousAuthenticationFilter
  SessionManagementFilter
  ExceptionTranslationFilter
  AuthorizationFilter
]


************************************************************


2024-09-03 19:04:47 - Securing OPTIONS /customer?email=martin.dupont@google.fr
2024-09-03 19:04:47 - 

************************************************************

Request received for GET '/customer?email=martin.dupont@google.fr':

org.apache.catalina.connector.RequestFacade@26386b29

servletPath:/customer
pathInfo:null
headers: 
host: localhost:8080
connection: keep-alive
sec-ch-ua: "Chromium";v="128", "Not;A=Brand";v="24", "Google Chrome";v="128"
sec-ch-ua-mobile: ?0
authorization: Basic bWFydGluLmR1cG9udEBnb29nbGUuZnI6QWRtaW4xMjMh
user-agent: Mozilla/5.0 (Windows NT 10.0; Win64; x64) AppleWebKit/537.36 (KHTML, like Gecko) Chrome/128.0.0.0 Safari/537.36
content-type: application/json
accept: application/json, text/plain, */*
x-requested-with: XMLHttpRequest
sec-ch-ua-platform: "Windows"
origin: http://localhost:4200
sec-fetch-site: same-site
sec-fetch-mode: cors
sec-fetch-dest: empty
referer: http://localhost:4200/
accept-encoding: gzip, deflate, br, zstd
accept-language: fr-FR,fr;q=0.9,en-US;q=0.8,en;q=0.7
cookie: Idea-7ac81781=c


Security filter chain: [
  DisableEncodeUrlFilter
  WebAsyncManagerIntegrationFilter
  SecurityContextHolderFilter
  HeaderWriterFilter
  CorsFilter
  LogoutFilter
  UsernamePasswordAuthenticationFilter
  RegistrationRequestFilter
  JWTokenValidatorFilter
  BasicAuthenticationFilter
  LogUserConnexion
  JWTokenGeneratorFilter
  RequestCacheAwareFilter
  SecurityContextHolderAwareRequestFilter
  AnonymousAuthenticationFilter
  SessionManagementFilter
  ExceptionTranslationFilter
  AuthorizationFilter
]


************************************************************


2024-09-03 19:04:47 - Securing GET /customer?email=martin.dupont@google.fr
2024-09-03 19:04:47 - 
    select
        c1_0.id,
        c1_0.creation_date,
        c1_0.email,
        c1_0.first_name,
        c1_0.last_name,
        c1_0.password,
        c1_0.role,
        c1_0.update_date 
    from
        customers c1_0 
    where
        c1_0.email=?
2024-09-03 19:04:47 - 
    select
        a1_0.customer_id,
        a1_0.id,
        a1_0.name 
    from
        authorities a1_0 
    where
        a1_0.customer_id=?
2024-09-03 19:04:47 - Set SecurityContextHolder to UsernamePasswordAuthenticationToken [Principal=martin.dupont@google.fr, Credentials=[PROTECTED], Authenticated=true, Details=WebAuthenticationDetails [RemoteIpAddress=0:0:0:0:0:0:0:1, SessionId=null], Granted Authorities=[]]
2024-09-03 19:04:47 - User martin.dupont@google.fr is successfully authenticated and has the authorities []
2024-09-03 19:04:47 - Secured GET /customer?email=martin.dupont@google.fr
2024-09-03 19:04:48 - 
    select
        c1_0.id,
        c1_0.creation_date,
        c1_0.email,
        c1_0.first_name,
        c1_0.last_name,
        c1_0.password,
        c1_0.role,
        c1_0.update_date 
    from
        customers c1_0 
    where
        c1_0.email=?
2024-09-03 19:04:48 - 
    select
        a1_0.customer_id,
        a1_0.id,
        a1_0.name 
    from
        authorities a1_0 
    where
        a1_0.customer_id=?
2024-09-03 19:04:53 - 

************************************************************

Request received for OPTIONS '/bankaccount/list?id=1':

org.apache.catalina.connector.RequestFacade@77b457a0

servletPath:/bankaccount/list
pathInfo:null
headers: 
host: localhost:8080
connection: keep-alive
accept: */*
access-control-request-method: GET
access-control-request-headers: authorization,content-type,x-requested-with
origin: http://localhost:4200
user-agent: Mozilla/5.0 (Windows NT 10.0; Win64; x64) AppleWebKit/537.36 (KHTML, like Gecko) Chrome/128.0.0.0 Safari/537.36
sec-fetch-mode: cors
sec-fetch-site: same-site
sec-fetch-dest: empty
referer: http://localhost:4200/
accept-encoding: gzip, deflate, br, zstd
accept-language: fr-FR,fr;q=0.9,en-US;q=0.8,en;q=0.7


Security filter chain: [
  DisableEncodeUrlFilter
  WebAsyncManagerIntegrationFilter
  SecurityContextHolderFilter
  HeaderWriterFilter
  CorsFilter
  LogoutFilter
  UsernamePasswordAuthenticationFilter
  RegistrationRequestFilter
  JWTokenValidatorFilter
  BasicAuthenticationFilter
  LogUserConnexion
  JWTokenGeneratorFilter
  RequestCacheAwareFilter
  SecurityContextHolderAwareRequestFilter
  AnonymousAuthenticationFilter
  SessionManagementFilter
  ExceptionTranslationFilter
  AuthorizationFilter
]


************************************************************


2024-09-03 19:04:53 - Securing OPTIONS /bankaccount/list?id=1
2024-09-03 19:04:53 - 

************************************************************

Request received for OPTIONS '/category':

org.apache.catalina.connector.RequestFacade@7973b726

servletPath:/category
pathInfo:null
headers: 
host: localhost:8080
connection: keep-alive
accept: */*
access-control-request-method: GET
access-control-request-headers: authorization,content-type,x-requested-with
origin: http://localhost:4200
user-agent: Mozilla/5.0 (Windows NT 10.0; Win64; x64) AppleWebKit/537.36 (KHTML, like Gecko) Chrome/128.0.0.0 Safari/537.36
sec-fetch-mode: cors
sec-fetch-site: same-site
sec-fetch-dest: empty
referer: http://localhost:4200/
accept-encoding: gzip, deflate, br, zstd
accept-language: fr-FR,fr;q=0.9,en-US;q=0.8,en;q=0.7


Security filter chain: [
  DisableEncodeUrlFilter
  WebAsyncManagerIntegrationFilter
  SecurityContextHolderFilter
  HeaderWriterFilter
  CorsFilter
  LogoutFilter
  UsernamePasswordAuthenticationFilter
  RegistrationRequestFilter
  JWTokenValidatorFilter
  BasicAuthenticationFilter
  LogUserConnexion
  JWTokenGeneratorFilter
  RequestCacheAwareFilter
  SecurityContextHolderAwareRequestFilter
  AnonymousAuthenticationFilter
  SessionManagementFilter
  ExceptionTranslationFilter
  AuthorizationFilter
]


************************************************************


2024-09-03 19:04:53 - Securing OPTIONS /category
2024-09-03 19:04:53 - 

************************************************************

Request received for OPTIONS '/csvfile?id=1':

org.apache.catalina.connector.RequestFacade@6747421c

servletPath:/csvfile
pathInfo:null
headers: 
host: localhost:8080
connection: keep-alive
accept: */*
access-control-request-method: GET
access-control-request-headers: authorization,content-type,x-requested-with
origin: http://localhost:4200
user-agent: Mozilla/5.0 (Windows NT 10.0; Win64; x64) AppleWebKit/537.36 (KHTML, like Gecko) Chrome/128.0.0.0 Safari/537.36
sec-fetch-mode: cors
sec-fetch-site: same-site
sec-fetch-dest: empty
referer: http://localhost:4200/
accept-encoding: gzip, deflate, br, zstd
accept-language: fr-FR,fr;q=0.9,en-US;q=0.8,en;q=0.7


Security filter chain: [
  DisableEncodeUrlFilter
  WebAsyncManagerIntegrationFilter
  SecurityContextHolderFilter
  HeaderWriterFilter
  CorsFilter
  LogoutFilter
  UsernamePasswordAuthenticationFilter
  RegistrationRequestFilter
  JWTokenValidatorFilter
  BasicAuthenticationFilter
  LogUserConnexion
  JWTokenGeneratorFilter
  RequestCacheAwareFilter
  SecurityContextHolderAwareRequestFilter
  AnonymousAuthenticationFilter
  SessionManagementFilter
  ExceptionTranslationFilter
  AuthorizationFilter
]


************************************************************


2024-09-03 19:04:53 - Securing OPTIONS /csvfile?id=1
2024-09-03 19:04:53 - 

************************************************************

Request received for GET '/bankaccount/list?id=1':

org.apache.catalina.connector.RequestFacade@6980b084

servletPath:/bankaccount/list
pathInfo:null
headers: 
host: localhost:8080
connection: keep-alive
sec-ch-ua: "Chromium";v="128", "Not;A=Brand";v="24", "Google Chrome";v="128"
sec-ch-ua-mobile: ?0
authorization: eyJhbGciOiJIUzI1NiJ9.eyJpc3MiOiJHQlQiLCJzdWIiOiJKV1QgVG9rZW4iLCJ1c2VybmFtZSI6Im1hcnRpbi5kdXBvbnRAZ29vZ2xlLmZyIiwiYXV0aG9yaXRpZXMiOiIiLCJpYXQiOjE3MjUzODMwODcsImV4cCI6MTcyNTM5MDI4N30.nmBiNrEqBVM9DSQ76nuURhXKE22kTTYYIOkZSIoVuqs
user-agent: Mozilla/5.0 (Windows NT 10.0; Win64; x64) AppleWebKit/537.36 (KHTML, like Gecko) Chrome/128.0.0.0 Safari/537.36
content-type: application/json
accept: application/json, text/plain, */*
x-requested-with: XMLHttpRequest
sec-ch-ua-platform: "Windows"
origin: http://localhost:4200
sec-fetch-site: same-site
sec-fetch-mode: cors
sec-fetch-dest: empty
referer: http://localhost:4200/
accept-encoding: gzip, deflate, br, zstd
accept-language: fr-FR,fr;q=0.9,en-US;q=0.8,en;q=0.7
cookie: Idea-7ac81781=c


Security filter chain: [
  DisableEncodeUrlFilter
  WebAsyncManagerIntegrationFilter
  SecurityContextHolderFilter
  HeaderWriterFilter
  CorsFilter
  LogoutFilter
  UsernamePasswordAuthenticationFilter
  RegistrationRequestFilter
  JWTokenValidatorFilter
  BasicAuthenticationFilter
  LogUserConnexion
  JWTokenGeneratorFilter
  RequestCacheAwareFilter
  SecurityContextHolderAwareRequestFilter
  AnonymousAuthenticationFilter
  SessionManagementFilter
  ExceptionTranslationFilter
  AuthorizationFilter
]


************************************************************


2024-09-03 19:04:53 - Securing GET /bankaccount/list?id=1
2024-09-03 19:04:53 - 

************************************************************

Request received for GET '/csvfile?id=1':

org.apache.catalina.connector.RequestFacade@797e6efb

servletPath:/csvfile
pathInfo:null
headers: 
host: localhost:8080
connection: keep-alive
sec-ch-ua: "Chromium";v="128", "Not;A=Brand";v="24", "Google Chrome";v="128"
sec-ch-ua-mobile: ?0
authorization: eyJhbGciOiJIUzI1NiJ9.eyJpc3MiOiJHQlQiLCJzdWIiOiJKV1QgVG9rZW4iLCJ1c2VybmFtZSI6Im1hcnRpbi5kdXBvbnRAZ29vZ2xlLmZyIiwiYXV0aG9yaXRpZXMiOiIiLCJpYXQiOjE3MjUzODMwODcsImV4cCI6MTcyNTM5MDI4N30.nmBiNrEqBVM9DSQ76nuURhXKE22kTTYYIOkZSIoVuqs
user-agent: Mozilla/5.0 (Windows NT 10.0; Win64; x64) AppleWebKit/537.36 (KHTML, like Gecko) Chrome/128.0.0.0 Safari/537.36
content-type: application/json
accept: application/json, text/plain, */*
x-requested-with: XMLHttpRequest
sec-ch-ua-platform: "Windows"
origin: http://localhost:4200
sec-fetch-site: same-site
sec-fetch-mode: cors
sec-fetch-dest: empty
referer: http://localhost:4200/
accept-encoding: gzip, deflate, br, zstd
accept-language: fr-FR,fr;q=0.9,en-US;q=0.8,en;q=0.7
cookie: Idea-7ac81781=c


Security filter chain: [
  DisableEncodeUrlFilter
  WebAsyncManagerIntegrationFilter
  SecurityContextHolderFilter
  HeaderWriterFilter
  CorsFilter
  LogoutFilter
  UsernamePasswordAuthenticationFilter
  RegistrationRequestFilter
  JWTokenValidatorFilter
  BasicAuthenticationFilter
  LogUserConnexion
  JWTokenGeneratorFilter
  RequestCacheAwareFilter
  SecurityContextHolderAwareRequestFilter
  AnonymousAuthenticationFilter
  SessionManagementFilter
  ExceptionTranslationFilter
  AuthorizationFilter
]


************************************************************


2024-09-03 19:04:53 - Securing GET /csvfile?id=1
2024-09-03 19:04:53 - 

************************************************************

Request received for GET '/category':

org.apache.catalina.connector.RequestFacade@7d4c3cd0

servletPath:/category
pathInfo:null
headers: 
host: localhost:8080
connection: keep-alive
sec-ch-ua: "Chromium";v="128", "Not;A=Brand";v="24", "Google Chrome";v="128"
sec-ch-ua-mobile: ?0
authorization: eyJhbGciOiJIUzI1NiJ9.eyJpc3MiOiJHQlQiLCJzdWIiOiJKV1QgVG9rZW4iLCJ1c2VybmFtZSI6Im1hcnRpbi5kdXBvbnRAZ29vZ2xlLmZyIiwiYXV0aG9yaXRpZXMiOiIiLCJpYXQiOjE3MjUzODMwODcsImV4cCI6MTcyNTM5MDI4N30.nmBiNrEqBVM9DSQ76nuURhXKE22kTTYYIOkZSIoVuqs
user-agent: Mozilla/5.0 (Windows NT 10.0; Win64; x64) AppleWebKit/537.36 (KHTML, like Gecko) Chrome/128.0.0.0 Safari/537.36
content-type: application/json
accept: application/json, text/plain, */*
x-requested-with: XMLHttpRequest
sec-ch-ua-platform: "Windows"
origin: http://localhost:4200
sec-fetch-site: same-site
sec-fetch-mode: cors
sec-fetch-dest: empty
referer: http://localhost:4200/
accept-encoding: gzip, deflate, br, zstd
accept-language: fr-FR,fr;q=0.9,en-US;q=0.8,en;q=0.7
cookie: Idea-7ac81781=c


Security filter chain: [
  DisableEncodeUrlFilter
  WebAsyncManagerIntegrationFilter
  SecurityContextHolderFilter
  HeaderWriterFilter
  CorsFilter
  LogoutFilter
  UsernamePasswordAuthenticationFilter
  RegistrationRequestFilter
  JWTokenValidatorFilter
  BasicAuthenticationFilter
  LogUserConnexion
  JWTokenGeneratorFilter
  RequestCacheAwareFilter
  SecurityContextHolderAwareRequestFilter
  AnonymousAuthenticationFilter
  SessionManagementFilter
  ExceptionTranslationFilter
  AuthorizationFilter
]


************************************************************


2024-09-03 19:04:53 - Securing GET /category
2024-09-03 19:04:53 - User martin.dupont@google.fr is successfully authenticated and has the authorities []
2024-09-03 19:04:53 - User martin.dupont@google.fr is successfully authenticated and has the authorities []
2024-09-03 19:04:53 - User martin.dupont@google.fr is successfully authenticated and has the authorities []
2024-09-03 19:04:53 - Secured GET /bankaccount/list?id=1
2024-09-03 19:04:53 - Secured GET /csvfile?id=1
2024-09-03 19:04:53 - Secured GET /category
2024-09-03 19:04:53 - 
    select
        b1_0.id,
        b1_0.address,
        b1_0.bank_name,
        b1_0.city,
        b1_0.creation_date,
        b1_0.customer_id,
        b1_0.initial_balance,
        b1_0.reference_account,
        b1_0.type_account,
        b1_0.update_date 
    from
        bank_accounts b1_0 
    where
        b1_0.customer_id=?
2024-09-03 19:04:53 - 
    select
        c1_0.id,
        c1_0.bank_account_id,
        c1_0.creation_date,
        c1_0.file_name,
        c1_0.update_date 
    from
        csv_files c1_0 
    join
        bank_accounts b1_0 
            on b1_0.id=c1_0.bank_account_id 
    where
        b1_0.customer_id=?
2024-09-03 19:04:53 - 
    select
        b1_0.id,
        b1_0.address,
        b1_0.bank_name,
        b1_0.city,
        b1_0.creation_date,
        b1_0.customer_id,
        c1_0.id,
        a1_0.customer_id,
        a1_0.id,
        a1_0.name,
        c1_0.creation_date,
        c1_0.email,
        c1_0.first_name,
        c1_0.last_name,
        c1_0.password,
        c1_0.role,
        c1_0.update_date,
        b1_0.initial_balance,
        b1_0.reference_account,
        b1_0.type_account,
        b1_0.update_date 
    from
        bank_accounts b1_0 
    join
        customers c1_0 
            on c1_0.id=b1_0.customer_id 
    left join
        authorities a1_0 
            on c1_0.id=a1_0.customer_id 
    where
        b1_0.id=?
2024-09-03 19:04:53 - 
    select
        c1_0.id,
        a1_0.customer_id,
        a1_0.id,
        a1_0.name,
        c1_0.creation_date,
        c1_0.email,
        c1_0.first_name,
        c1_0.last_name,
        c1_0.password,
        c1_0.role,
        c1_0.update_date 
    from
        customers c1_0 
    left join
        authorities a1_0 
            on c1_0.id=a1_0.customer_id 
    where
        c1_0.id=?
2024-09-03 19:04:53 - 
    select
        b1_0.id,
        b1_0.address,
        b1_0.bank_name,
        b1_0.city,
        b1_0.creation_date,
        b1_0.customer_id,
        c1_0.id,
        a1_0.customer_id,
        a1_0.id,
        a1_0.name,
        c1_0.creation_date,
        c1_0.email,
        c1_0.first_name,
        c1_0.last_name,
        c1_0.password,
        c1_0.role,
        c1_0.update_date,
        b1_0.initial_balance,
        b1_0.reference_account,
        b1_0.type_account,
        b1_0.update_date 
    from
        bank_accounts b1_0 
    join
        customers c1_0 
            on c1_0.id=b1_0.customer_id 
    left join
        authorities a1_0 
            on c1_0.id=a1_0.customer_id 
    where
        b1_0.id=?
2024-09-03 19:04:53 - 
    select
        c1_0.id,
        c1_0.category_name,
        c1_0.category_type 
    from
        categories c1_0
2024-09-03 19:04:53 - 
    select
        b1_0.id,
        b1_0.address,
        b1_0.bank_name,
        b1_0.city,
        b1_0.creation_date,
        b1_0.customer_id,
        c1_0.id,
        a1_0.customer_id,
        a1_0.id,
        a1_0.name,
        c1_0.creation_date,
        c1_0.email,
        c1_0.first_name,
        c1_0.last_name,
        c1_0.password,
        c1_0.role,
        c1_0.update_date,
        b1_0.initial_balance,
        b1_0.reference_account,
        b1_0.type_account,
        b1_0.update_date 
    from
        bank_accounts b1_0 
    join
        customers c1_0 
            on c1_0.id=b1_0.customer_id 
    left join
        authorities a1_0 
            on c1_0.id=a1_0.customer_id 
    where
        b1_0.id=?
2024-09-03 19:05:00 - 

************************************************************

Request received for GET '/bankaccount/list?id=1':

org.apache.catalina.connector.RequestFacade@4f1b13a5

servletPath:/bankaccount/list
pathInfo:null
headers: 
host: localhost:8080
connection: keep-alive
sec-ch-ua: "Chromium";v="128", "Not;A=Brand";v="24", "Google Chrome";v="128"
sec-ch-ua-mobile: ?0
authorization: eyJhbGciOiJIUzI1NiJ9.eyJpc3MiOiJHQlQiLCJzdWIiOiJKV1QgVG9rZW4iLCJ1c2VybmFtZSI6Im1hcnRpbi5kdXBvbnRAZ29vZ2xlLmZyIiwiYXV0aG9yaXRpZXMiOiIiLCJpYXQiOjE3MjUzODMwODcsImV4cCI6MTcyNTM5MDI4N30.nmBiNrEqBVM9DSQ76nuURhXKE22kTTYYIOkZSIoVuqs
user-agent: Mozilla/5.0 (Windows NT 10.0; Win64; x64) AppleWebKit/537.36 (KHTML, like Gecko) Chrome/128.0.0.0 Safari/537.36
content-type: application/json
accept: application/json, text/plain, */*
x-requested-with: XMLHttpRequest
sec-ch-ua-platform: "Windows"
origin: http://localhost:4200
sec-fetch-site: same-site
sec-fetch-mode: cors
sec-fetch-dest: empty
referer: http://localhost:4200/
accept-encoding: gzip, deflate, br, zstd
accept-language: fr-FR,fr;q=0.9,en-US;q=0.8,en;q=0.7
cookie: Idea-7ac81781=c


Security filter chain: [
  DisableEncodeUrlFilter
  WebAsyncManagerIntegrationFilter
  SecurityContextHolderFilter
  HeaderWriterFilter
  CorsFilter
  LogoutFilter
  UsernamePasswordAuthenticationFilter
  RegistrationRequestFilter
  JWTokenValidatorFilter
  BasicAuthenticationFilter
  LogUserConnexion
  JWTokenGeneratorFilter
  RequestCacheAwareFilter
  SecurityContextHolderAwareRequestFilter
  AnonymousAuthenticationFilter
  SessionManagementFilter
  ExceptionTranslationFilter
  AuthorizationFilter
]


************************************************************


2024-09-03 19:05:00 - Securing GET /bankaccount/list?id=1
2024-09-03 19:05:00 - User martin.dupont@google.fr is successfully authenticated and has the authorities []
2024-09-03 19:05:00 - Secured GET /bankaccount/list?id=1
2024-09-03 19:05:00 - 
    select
        b1_0.id,
        b1_0.address,
        b1_0.bank_name,
        b1_0.city,
        b1_0.creation_date,
        b1_0.customer_id,
        b1_0.initial_balance,
        b1_0.reference_account,
        b1_0.type_account,
        b1_0.update_date 
    from
        bank_accounts b1_0 
    where
        b1_0.customer_id=?
2024-09-03 19:05:00 - 
    select
        c1_0.id,
        a1_0.customer_id,
        a1_0.id,
        a1_0.name,
        c1_0.creation_date,
        c1_0.email,
        c1_0.first_name,
        c1_0.last_name,
        c1_0.password,
        c1_0.role,
        c1_0.update_date 
    from
        customers c1_0 
    left join
        authorities a1_0 
            on c1_0.id=a1_0.customer_id 
    where
        c1_0.id=?
2024-09-03 19:05:02 - 

************************************************************

Request received for OPTIONS '/statistical?id=1':

org.apache.catalina.connector.RequestFacade@2697ebef

servletPath:/statistical
pathInfo:null
headers: 
host: localhost:8080
connection: keep-alive
accept: */*
access-control-request-method: GET
access-control-request-headers: authorization,content-type,x-requested-with
origin: http://localhost:4200
user-agent: Mozilla/5.0 (Windows NT 10.0; Win64; x64) AppleWebKit/537.36 (KHTML, like Gecko) Chrome/128.0.0.0 Safari/537.36
sec-fetch-mode: cors
sec-fetch-site: same-site
sec-fetch-dest: empty
referer: http://localhost:4200/
accept-encoding: gzip, deflate, br, zstd
accept-language: fr-FR,fr;q=0.9,en-US;q=0.8,en;q=0.7


Security filter chain: [
  DisableEncodeUrlFilter
  WebAsyncManagerIntegrationFilter
  SecurityContextHolderFilter
  HeaderWriterFilter
  CorsFilter
  LogoutFilter
  UsernamePasswordAuthenticationFilter
  RegistrationRequestFilter
  JWTokenValidatorFilter
  BasicAuthenticationFilter
  LogUserConnexion
  JWTokenGeneratorFilter
  RequestCacheAwareFilter
  SecurityContextHolderAwareRequestFilter
  AnonymousAuthenticationFilter
  SessionManagementFilter
  ExceptionTranslationFilter
  AuthorizationFilter
]


************************************************************


2024-09-03 19:05:02 - Securing OPTIONS /statistical?id=1
2024-09-03 19:05:02 - 

************************************************************

Request received for GET '/statistical?id=1':

org.apache.catalina.connector.RequestFacade@a38f985

servletPath:/statistical
pathInfo:null
headers: 
host: localhost:8080
connection: keep-alive
sec-ch-ua: "Chromium";v="128", "Not;A=Brand";v="24", "Google Chrome";v="128"
sec-ch-ua-mobile: ?0
authorization: eyJhbGciOiJIUzI1NiJ9.eyJpc3MiOiJHQlQiLCJzdWIiOiJKV1QgVG9rZW4iLCJ1c2VybmFtZSI6Im1hcnRpbi5kdXBvbnRAZ29vZ2xlLmZyIiwiYXV0aG9yaXRpZXMiOiIiLCJpYXQiOjE3MjUzODMwODcsImV4cCI6MTcyNTM5MDI4N30.nmBiNrEqBVM9DSQ76nuURhXKE22kTTYYIOkZSIoVuqs
user-agent: Mozilla/5.0 (Windows NT 10.0; Win64; x64) AppleWebKit/537.36 (KHTML, like Gecko) Chrome/128.0.0.0 Safari/537.36
content-type: application/json
accept: application/json, text/plain, */*
x-requested-with: XMLHttpRequest
sec-ch-ua-platform: "Windows"
origin: http://localhost:4200
sec-fetch-site: same-site
sec-fetch-mode: cors
sec-fetch-dest: empty
referer: http://localhost:4200/
accept-encoding: gzip, deflate, br, zstd
accept-language: fr-FR,fr;q=0.9,en-US;q=0.8,en;q=0.7
cookie: Idea-7ac81781=c


Security filter chain: [
  DisableEncodeUrlFilter
  WebAsyncManagerIntegrationFilter
  SecurityContextHolderFilter
  HeaderWriterFilter
  CorsFilter
  LogoutFilter
  UsernamePasswordAuthenticationFilter
  RegistrationRequestFilter
  JWTokenValidatorFilter
  BasicAuthenticationFilter
  LogUserConnexion
  JWTokenGeneratorFilter
  RequestCacheAwareFilter
  SecurityContextHolderAwareRequestFilter
  AnonymousAuthenticationFilter
  SessionManagementFilter
  ExceptionTranslationFilter
  AuthorizationFilter
]


************************************************************


2024-09-03 19:05:02 - Securing GET /statistical?id=1
2024-09-03 19:05:02 - User martin.dupont@google.fr is successfully authenticated and has the authorities []
2024-09-03 19:05:02 - Secured GET /statistical?id=1
2024-09-03 19:05:02 - 
    select
        c1_0.id,
        c1_0.creation_date,
        c1_0.email,
        c1_0.first_name,
        c1_0.last_name,
        c1_0.password,
        c1_0.role,
        c1_0.update_date 
    from
        customers c1_0 
    where
        c1_0.email=?
2024-09-03 19:05:02 - 
    select
        a1_0.customer_id,
        a1_0.id,
        a1_0.name 
    from
        authorities a1_0 
    where
        a1_0.customer_id=?
2024-09-03 19:05:02 - 
    select
        b1_0.id,
        b1_0.address,
        b1_0.bank_name,
        b1_0.city,
        b1_0.creation_date,
        b1_0.customer_id,
        c1_0.id,
        a1_0.customer_id,
        a1_0.id,
        a1_0.name,
        c1_0.creation_date,
        c1_0.email,
        c1_0.first_name,
        c1_0.last_name,
        c1_0.password,
        c1_0.role,
        c1_0.update_date,
        b1_0.initial_balance,
        b1_0.reference_account,
        b1_0.type_account,
        b1_0.update_date 
    from
        bank_accounts b1_0 
    join
        customers c1_0 
            on c1_0.id=b1_0.customer_id 
    left join
        authorities a1_0 
            on c1_0.id=a1_0.customer_id 
    where
        b1_0.id=?
2024-09-03 19:05:02 - 
    select
        b1_0.id,
        b1_0.bank_account_id,
        b1_0.category_id,
        b1_0.creation_date,
        b1_0.credit,
        b1_0.csv_file_id,
        b1_0.date,
        b1_0.debit,
        b1_0.description,
        b1_0.update_date 
    from
        banking_transactions b1_0 
    where
        b1_0.bank_account_id=?
2024-09-03 19:05:02 - 
    select
        c1_0.id,
        c1_0.category_name,
        c1_0.category_type 
    from
        categories c1_0 
    where
        c1_0.id=?
2024-09-03 19:05:02 - 
    select
        c1_0.id,
        c1_0.bank_account_id,
        b1_0.id,
        b1_0.address,
        b1_0.bank_name,
        b1_0.city,
        b1_0.creation_date,
        b1_0.customer_id,
        c2_0.id,
        a1_0.customer_id,
        a1_0.id,
        a1_0.name,
        c2_0.creation_date,
        c2_0.email,
        c2_0.first_name,
        c2_0.last_name,
        c2_0.password,
        c2_0.role,
        c2_0.update_date,
        b1_0.initial_balance,
        b1_0.reference_account,
        b1_0.type_account,
        b1_0.update_date,
        c1_0.creation_date,
        c1_0.file_name,
        c1_0.update_date 
    from
        csv_files c1_0 
    join
        bank_accounts b1_0 
            on b1_0.id=c1_0.bank_account_id 
    left join
        customers c2_0 
            on c2_0.id=b1_0.customer_id 
    left join
        authorities a1_0 
            on c2_0.id=a1_0.customer_id 
    where
        c1_0.id=?
2024-09-03 19:05:02 - 
    select
        c1_0.id,
        c1_0.category_name,
        c1_0.category_type 
    from
        categories c1_0 
    where
        c1_0.id=?
2024-09-03 19:05:02 - 
    select
        c1_0.id,
        c1_0.category_name,
        c1_0.category_type 
    from
        categories c1_0 
    where
        c1_0.id=?
2024-09-03 19:05:02 - 
    select
        c1_0.id,
        c1_0.category_name,
        c1_0.category_type 
    from
        categories c1_0 
    where
        c1_0.id=?
2024-09-03 19:05:02 - 
    select
        c1_0.id,
        c1_0.category_name,
        c1_0.category_type 
    from
        categories c1_0 
    where
        c1_0.id=?
2024-09-03 19:05:02 - 
    select
        c1_0.id,
        c1_0.category_name,
        c1_0.category_type 
    from
        categories c1_0 
    where
        c1_0.id=?
2024-09-03 19:05:02 - 
    select
        c1_0.id,
        c1_0.category_name,
        c1_0.category_type 
    from
        categories c1_0 
    where
        c1_0.id=?
2024-09-03 19:05:02 - 
    select
        c1_0.id,
        c1_0.category_name,
        c1_0.category_type 
    from
        categories c1_0 
    where
        c1_0.id=?
2024-09-03 19:05:02 - 
    select
        c1_0.id,
        c1_0.category_name,
        c1_0.category_type 
    from
        categories c1_0 
    where
        c1_0.id=?
2024-09-03 19:05:02 - 
    select
        extract(year from b1_0.date),
        extract(month from b1_0.date),
        sum(b1_0.debit),
        sum(b1_0.credit) 
    from
        banking_transactions b1_0 
    where
        b1_0.bank_account_id=? 
    group by
        extract(year from b1_0.date),
        extract(month from b1_0.date) 
    order by
        extract(year from b1_0.date),
        extract(month from b1_0.date)
2024-09-03 19:05:02 - Total Debit Credit Statistical Result: [2022, 10, 3682.31, 2180.90]
2024-09-03 19:05:02 - Generated BalanceTampingStatDTO: com.gbp_v2.SPRGBP.entities.dto.BalanceTampingStatDTO@7102f1e4
2024-09-03 19:05:02 - Generated BalanceTampingStatDTO: com.gbp_v2.SPRGBP.entities.dto.BalanceTampingStatDTO@71036643
2024-09-03 19:05:02 - Generated BalanceTampingStatDTO: com.gbp_v2.SPRGBP.entities.dto.BalanceTampingStatDTO@7103daa2
2024-09-03 19:05:02 - Generated BalanceTampingStatDTO: com.gbp_v2.SPRGBP.entities.dto.BalanceTampingStatDTO@71044f01
2024-09-03 19:05:02 - Generated BalanceTampingStatDTO: com.gbp_v2.SPRGBP.entities.dto.BalanceTampingStatDTO@7104c360
2024-09-03 19:05:02 - Generated BalanceTampingStatDTO: com.gbp_v2.SPRGBP.entities.dto.BalanceTampingStatDTO@710537bf
2024-09-03 19:05:02 - Generated BalanceTampingStatDTO: com.gbp_v2.SPRGBP.entities.dto.BalanceTampingStatDTO@7105ac1e
2024-09-03 19:05:02 - Generated BalanceTampingStatDTO: com.gbp_v2.SPRGBP.entities.dto.BalanceTampingStatDTO@7106207d
2024-09-03 19:05:02 - Generated BalanceTampingStatDTO: com.gbp_v2.SPRGBP.entities.dto.BalanceTampingStatDTO@710694dc
2024-09-03 19:05:02 - Generated BalanceTampingStatDTO: com.gbp_v2.SPRGBP.entities.dto.BalanceTampingStatDTO@385d0188
2024-09-03 19:05:03 - 
    select
        extract(year from b1_0.date),
        extract(month from b1_0.date),
        c1_0.category_name,
        sum(b1_0.credit),
        sum(b1_0.debit) 
    from
        banking_transactions b1_0 
    join
        categories c1_0 
            on c1_0.id=b1_0.category_id 
    where
        b1_0.bank_account_id=? 
    group by
        extract(year from b1_0.date),
        extract(month from b1_0.date),
        c1_0.category_name 
    order by
        extract(year from b1_0.date),
        extract(month from b1_0.date),
        c1_0.category_name
2024-09-03 19:05:03 - Total per Category Debit Credit Statistical Result: [2022, 10, eau, null, 263.22]
2024-09-03 19:05:03 - Total per Category Debit Credit Statistical Result: [2022, 10, electricité, null, 367.41]
2024-09-03 19:05:03 - Total per Category Debit Credit Statistical Result: [2022, 10, essence, null, 120.00]
2024-09-03 19:05:03 - Total per Category Debit Credit Statistical Result: [2022, 10, habillement, null, 69.76]
2024-09-03 19:05:03 - Total per Category Debit Credit Statistical Result: [2022, 10, impôt, null, 2146.86]
2024-09-03 19:05:03 - Total per Category Debit Credit Statistical Result: [2022, 10, nourriture, null, 369.55]
2024-09-03 19:05:03 - Total per Category Debit Credit Statistical Result: [2022, 10, salaire, 2156.34, null]
2024-09-03 19:05:03 - Total per Category Debit Credit Statistical Result: [2022, 10, santé, 24.56, null]
2024-09-03 19:05:03 - Total per Category Debit Credit Statistical Result: [2022, 10, transport, null, 345.51]
2024-09-03 19:05:03 - 
    select
        extract(year from b1_0.date),
        extract(month from b1_0.date),
        count(b1_0.id) 
    from
        banking_transactions b1_0 
    where
        b1_0.bank_account_id=? 
    group by
        extract(year from b1_0.date),
        extract(month from b1_0.date) 
    order by
        extract(year from b1_0.date),
        extract(month from b1_0.date)
2024-09-03 19:05:03 - Total transaction per month and year Result: [2022, 10, 11]
2024-09-03 19:05:03 - Boucle year: 2022, month: 1
2024-09-03 19:05:03 - Generated NbTransactionStatDTOList: []
2024-09-03 19:05:03 - Boucle year: 2022, month: 2
2024-09-03 19:05:03 - Generated NbTransactionStatDTOList: [com.gbp_v2.SPRGBP.entities.dto.NbTransactionStatDTO@5953047b]
2024-09-03 19:05:03 - Boucle year: 2022, month: 3
2024-09-03 19:05:03 - Generated NbTransactionStatDTOList: [com.gbp_v2.SPRGBP.entities.dto.NbTransactionStatDTO@5953047b, com.gbp_v2.SPRGBP.entities.dto.NbTransactionStatDTO@1986f4f4]
2024-09-03 19:05:03 - Boucle year: 2022, month: 4
2024-09-03 19:05:03 - Generated NbTransactionStatDTOList: [com.gbp_v2.SPRGBP.entities.dto.NbTransactionStatDTO@5953047b, com.gbp_v2.SPRGBP.entities.dto.NbTransactionStatDTO@1986f4f4, com.gbp_v2.SPRGBP.entities.dto.NbTransactionStatDTO@26c5be9c]
2024-09-03 19:05:03 - Boucle year: 2022, month: 5
2024-09-03 19:05:03 - Generated NbTransactionStatDTOList: [com.gbp_v2.SPRGBP.entities.dto.NbTransactionStatDTO@5953047b, com.gbp_v2.SPRGBP.entities.dto.NbTransactionStatDTO@1986f4f4, com.gbp_v2.SPRGBP.entities.dto.NbTransactionStatDTO@26c5be9c, com.gbp_v2.SPRGBP.entities.dto.NbTransactionStatDTO@18fb95d4]
2024-09-03 19:05:03 - Boucle year: 2022, month: 6
2024-09-03 19:05:03 - Generated NbTransactionStatDTOList: [com.gbp_v2.SPRGBP.entities.dto.NbTransactionStatDTO@5953047b, com.gbp_v2.SPRGBP.entities.dto.NbTransactionStatDTO@1986f4f4, com.gbp_v2.SPRGBP.entities.dto.NbTransactionStatDTO@26c5be9c, com.gbp_v2.SPRGBP.entities.dto.NbTransactionStatDTO@18fb95d4, com.gbp_v2.SPRGBP.entities.dto.NbTransactionStatDTO@594a2a6c]
2024-09-03 19:05:03 - Boucle year: 2022, month: 7
2024-09-03 19:05:03 - Generated NbTransactionStatDTOList: [com.gbp_v2.SPRGBP.entities.dto.NbTransactionStatDTO@5953047b, com.gbp_v2.SPRGBP.entities.dto.NbTransactionStatDTO@1986f4f4, com.gbp_v2.SPRGBP.entities.dto.NbTransactionStatDTO@26c5be9c, com.gbp_v2.SPRGBP.entities.dto.NbTransactionStatDTO@18fb95d4, com.gbp_v2.SPRGBP.entities.dto.NbTransactionStatDTO@594a2a6c, com.gbp_v2.SPRGBP.entities.dto.NbTransactionStatDTO@77c554e5]
2024-09-03 19:05:03 - Boucle year: 2022, month: 8
2024-09-03 19:05:03 - Generated NbTransactionStatDTOList: [com.gbp_v2.SPRGBP.entities.dto.NbTransactionStatDTO@5953047b, com.gbp_v2.SPRGBP.entities.dto.NbTransactionStatDTO@1986f4f4, com.gbp_v2.SPRGBP.entities.dto.NbTransactionStatDTO@26c5be9c, com.gbp_v2.SPRGBP.entities.dto.NbTransactionStatDTO@18fb95d4, com.gbp_v2.SPRGBP.entities.dto.NbTransactionStatDTO@594a2a6c, com.gbp_v2.SPRGBP.entities.dto.NbTransactionStatDTO@77c554e5, com.gbp_v2.SPRGBP.entities.dto.NbTransactionStatDTO@7c7f25df]
2024-09-03 19:05:03 - Boucle year: 2022, month: 9
2024-09-03 19:05:03 - Generated NbTransactionStatDTOList: [com.gbp_v2.SPRGBP.entities.dto.NbTransactionStatDTO@5953047b, com.gbp_v2.SPRGBP.entities.dto.NbTransactionStatDTO@1986f4f4, com.gbp_v2.SPRGBP.entities.dto.NbTransactionStatDTO@26c5be9c, com.gbp_v2.SPRGBP.entities.dto.NbTransactionStatDTO@18fb95d4, com.gbp_v2.SPRGBP.entities.dto.NbTransactionStatDTO@594a2a6c, com.gbp_v2.SPRGBP.entities.dto.NbTransactionStatDTO@77c554e5, com.gbp_v2.SPRGBP.entities.dto.NbTransactionStatDTO@7c7f25df, com.gbp_v2.SPRGBP.entities.dto.NbTransactionStatDTO@386e4ab1]
2024-09-03 19:05:03 - Boucle year: 2022, month: 10
2024-09-03 19:05:03 - Generated NbTransactionStatDTOList: [com.gbp_v2.SPRGBP.entities.dto.NbTransactionStatDTO@5953047b, com.gbp_v2.SPRGBP.entities.dto.NbTransactionStatDTO@1986f4f4, com.gbp_v2.SPRGBP.entities.dto.NbTransactionStatDTO@26c5be9c, com.gbp_v2.SPRGBP.entities.dto.NbTransactionStatDTO@18fb95d4, com.gbp_v2.SPRGBP.entities.dto.NbTransactionStatDTO@594a2a6c, com.gbp_v2.SPRGBP.entities.dto.NbTransactionStatDTO@77c554e5, com.gbp_v2.SPRGBP.entities.dto.NbTransactionStatDTO@7c7f25df, com.gbp_v2.SPRGBP.entities.dto.NbTransactionStatDTO@386e4ab1, com.gbp_v2.SPRGBP.entities.dto.NbTransactionStatDTO@307f1e9a]
2024-09-03 19:06:42 - 

************************************************************

Request received for GET '/bankaccount/list?id=1':

org.apache.catalina.connector.RequestFacade@2fc81cf0

servletPath:/bankaccount/list
pathInfo:null
headers: 
host: localhost:8080
connection: keep-alive
sec-ch-ua: "Chromium";v="128", "Not;A=Brand";v="24", "Google Chrome";v="128"
sec-ch-ua-mobile: ?0
authorization: eyJhbGciOiJIUzI1NiJ9.eyJpc3MiOiJHQlQiLCJzdWIiOiJKV1QgVG9rZW4iLCJ1c2VybmFtZSI6Im1hcnRpbi5kdXBvbnRAZ29vZ2xlLmZyIiwiYXV0aG9yaXRpZXMiOiIiLCJpYXQiOjE3MjUzODMwODcsImV4cCI6MTcyNTM5MDI4N30.nmBiNrEqBVM9DSQ76nuURhXKE22kTTYYIOkZSIoVuqs
user-agent: Mozilla/5.0 (Windows NT 10.0; Win64; x64) AppleWebKit/537.36 (KHTML, like Gecko) Chrome/128.0.0.0 Safari/537.36
content-type: application/json
accept: application/json, text/plain, */*
x-requested-with: XMLHttpRequest
sec-ch-ua-platform: "Windows"
origin: http://localhost:4200
sec-fetch-site: same-site
sec-fetch-mode: cors
sec-fetch-dest: empty
referer: http://localhost:4200/
accept-encoding: gzip, deflate, br, zstd
accept-language: fr-FR,fr;q=0.9,en-US;q=0.8,en;q=0.7
cookie: Idea-7ac81781=c


Security filter chain: [
  DisableEncodeUrlFilter
  WebAsyncManagerIntegrationFilter
  SecurityContextHolderFilter
  HeaderWriterFilter
  CorsFilter
  LogoutFilter
  UsernamePasswordAuthenticationFilter
  RegistrationRequestFilter
  JWTokenValidatorFilter
  BasicAuthenticationFilter
  LogUserConnexion
  JWTokenGeneratorFilter
  RequestCacheAwareFilter
  SecurityContextHolderAwareRequestFilter
  AnonymousAuthenticationFilter
  SessionManagementFilter
  ExceptionTranslationFilter
  AuthorizationFilter
]


************************************************************


2024-09-03 19:06:42 - Securing GET /bankaccount/list?id=1
2024-09-03 19:06:42 - User martin.dupont@google.fr is successfully authenticated and has the authorities []
2024-09-03 19:06:42 - Secured GET /bankaccount/list?id=1
2024-09-03 19:06:42 - 
    select
        b1_0.id,
        b1_0.address,
        b1_0.bank_name,
        b1_0.city,
        b1_0.creation_date,
        b1_0.customer_id,
        b1_0.initial_balance,
        b1_0.reference_account,
        b1_0.type_account,
        b1_0.update_date 
    from
        bank_accounts b1_0 
    where
        b1_0.customer_id=?
2024-09-03 19:06:42 - 
    select
        c1_0.id,
        a1_0.customer_id,
        a1_0.id,
        a1_0.name,
        c1_0.creation_date,
        c1_0.email,
        c1_0.first_name,
        c1_0.last_name,
        c1_0.password,
        c1_0.role,
        c1_0.update_date 
    from
        customers c1_0 
    left join
        authorities a1_0 
            on c1_0.id=a1_0.customer_id 
    where
        c1_0.id=?
2024-09-03 19:06:45 - 

************************************************************

Request received for GET '/customer?email=martin.dupont@google.fr':

org.apache.catalina.connector.RequestFacade@506038ff

servletPath:/customer
pathInfo:null
headers: 
host: localhost:8080
connection: keep-alive
sec-ch-ua: "Chromium";v="128", "Not;A=Brand";v="24", "Google Chrome";v="128"
sec-ch-ua-mobile: ?0
authorization: Basic bWFydGluLmR1cG9udEBnb29nbGUuZnI6QWRtaW4xMjMh
user-agent: Mozilla/5.0 (Windows NT 10.0; Win64; x64) AppleWebKit/537.36 (KHTML, like Gecko) Chrome/128.0.0.0 Safari/537.36
content-type: application/json
accept: application/json, text/plain, */*
x-requested-with: XMLHttpRequest
sec-ch-ua-platform: "Windows"
origin: http://localhost:4200
sec-fetch-site: same-site
sec-fetch-mode: cors
sec-fetch-dest: empty
referer: http://localhost:4200/
accept-encoding: gzip, deflate, br, zstd
accept-language: fr-FR,fr;q=0.9,en-US;q=0.8,en;q=0.7
cookie: Idea-7ac81781=c


Security filter chain: [
  DisableEncodeUrlFilter
  WebAsyncManagerIntegrationFilter
  SecurityContextHolderFilter
  HeaderWriterFilter
  CorsFilter
  LogoutFilter
  UsernamePasswordAuthenticationFilter
  RegistrationRequestFilter
  JWTokenValidatorFilter
  BasicAuthenticationFilter
  LogUserConnexion
  JWTokenGeneratorFilter
  RequestCacheAwareFilter
  SecurityContextHolderAwareRequestFilter
  AnonymousAuthenticationFilter
  SessionManagementFilter
  ExceptionTranslationFilter
  AuthorizationFilter
]


************************************************************


2024-09-03 19:06:45 - Securing GET /customer?email=martin.dupont@google.fr
2024-09-03 19:06:45 - 
    select
        c1_0.id,
        c1_0.creation_date,
        c1_0.email,
        c1_0.first_name,
        c1_0.last_name,
        c1_0.password,
        c1_0.role,
        c1_0.update_date 
    from
        customers c1_0 
    where
        c1_0.email=?
2024-09-03 19:06:45 - 
    select
        a1_0.customer_id,
        a1_0.id,
        a1_0.name 
    from
        authorities a1_0 
    where
        a1_0.customer_id=?
2024-09-03 19:06:45 - Set SecurityContextHolder to UsernamePasswordAuthenticationToken [Principal=martin.dupont@google.fr, Credentials=[PROTECTED], Authenticated=true, Details=WebAuthenticationDetails [RemoteIpAddress=0:0:0:0:0:0:0:1, SessionId=null], Granted Authorities=[]]
2024-09-03 19:06:45 - User martin.dupont@google.fr is successfully authenticated and has the authorities []
2024-09-03 19:06:45 - Secured GET /customer?email=martin.dupont@google.fr
2024-09-03 19:06:45 - 
    select
        c1_0.id,
        c1_0.creation_date,
        c1_0.email,
        c1_0.first_name,
        c1_0.last_name,
        c1_0.password,
        c1_0.role,
        c1_0.update_date 
    from
        customers c1_0 
    where
        c1_0.email=?
2024-09-03 19:06:45 - 
    select
        a1_0.customer_id,
        a1_0.id,
        a1_0.name 
    from
        authorities a1_0 
    where
        a1_0.customer_id=?
2024-09-03 19:06:51 - 

************************************************************

Request received for GET '/csvfile?id=1':

org.apache.catalina.connector.RequestFacade@2850014d

servletPath:/csvfile
pathInfo:null
headers: 
host: localhost:8080
connection: keep-alive
sec-ch-ua: "Chromium";v="128", "Not;A=Brand";v="24", "Google Chrome";v="128"
sec-ch-ua-mobile: ?0
authorization: eyJhbGciOiJIUzI1NiJ9.eyJpc3MiOiJHQlQiLCJzdWIiOiJKV1QgVG9rZW4iLCJ1c2VybmFtZSI6Im1hcnRpbi5kdXBvbnRAZ29vZ2xlLmZyIiwiYXV0aG9yaXRpZXMiOiIiLCJpYXQiOjE3MjUzODMyMDUsImV4cCI6MTcyNTM5MDQwNX0.NZdtnYUXi17lt_5w-EGQYaA04bAxghyAVvj_hGkolWM
user-agent: Mozilla/5.0 (Windows NT 10.0; Win64; x64) AppleWebKit/537.36 (KHTML, like Gecko) Chrome/128.0.0.0 Safari/537.36
content-type: application/json
accept: application/json, text/plain, */*
x-requested-with: XMLHttpRequest
sec-ch-ua-platform: "Windows"
origin: http://localhost:4200
sec-fetch-site: same-site
sec-fetch-mode: cors
sec-fetch-dest: empty
referer: http://localhost:4200/
accept-encoding: gzip, deflate, br, zstd
accept-language: fr-FR,fr;q=0.9,en-US;q=0.8,en;q=0.7
cookie: Idea-7ac81781=c


Security filter chain: [
  DisableEncodeUrlFilter
  WebAsyncManagerIntegrationFilter
  SecurityContextHolderFilter
  HeaderWriterFilter
  CorsFilter
  LogoutFilter
  UsernamePasswordAuthenticationFilter
  RegistrationRequestFilter
  JWTokenValidatorFilter
  BasicAuthenticationFilter
  LogUserConnexion
  JWTokenGeneratorFilter
  RequestCacheAwareFilter
  SecurityContextHolderAwareRequestFilter
  AnonymousAuthenticationFilter
  SessionManagementFilter
  ExceptionTranslationFilter
  AuthorizationFilter
]


************************************************************


2024-09-03 19:06:51 - Securing GET /csvfile?id=1
2024-09-03 19:06:51 - 

************************************************************

Request received for GET '/bankaccount/list?id=1':

org.apache.catalina.connector.RequestFacade@4382b103

servletPath:/bankaccount/list
pathInfo:null
headers: 
host: localhost:8080
connection: keep-alive
sec-ch-ua: "Chromium";v="128", "Not;A=Brand";v="24", "Google Chrome";v="128"
sec-ch-ua-mobile: ?0
authorization: eyJhbGciOiJIUzI1NiJ9.eyJpc3MiOiJHQlQiLCJzdWIiOiJKV1QgVG9rZW4iLCJ1c2VybmFtZSI6Im1hcnRpbi5kdXBvbnRAZ29vZ2xlLmZyIiwiYXV0aG9yaXRpZXMiOiIiLCJpYXQiOjE3MjUzODMyMDUsImV4cCI6MTcyNTM5MDQwNX0.NZdtnYUXi17lt_5w-EGQYaA04bAxghyAVvj_hGkolWM
user-agent: Mozilla/5.0 (Windows NT 10.0; Win64; x64) AppleWebKit/537.36 (KHTML, like Gecko) Chrome/128.0.0.0 Safari/537.36
content-type: application/json
accept: application/json, text/plain, */*
x-requested-with: XMLHttpRequest
sec-ch-ua-platform: "Windows"
origin: http://localhost:4200
sec-fetch-site: same-site
sec-fetch-mode: cors
sec-fetch-dest: empty
referer: http://localhost:4200/
accept-encoding: gzip, deflate, br, zstd
accept-language: fr-FR,fr;q=0.9,en-US;q=0.8,en;q=0.7
cookie: Idea-7ac81781=c


Security filter chain: [
  DisableEncodeUrlFilter
  WebAsyncManagerIntegrationFilter
  SecurityContextHolderFilter
  HeaderWriterFilter
  CorsFilter
  LogoutFilter
  UsernamePasswordAuthenticationFilter
  RegistrationRequestFilter
  JWTokenValidatorFilter
  BasicAuthenticationFilter
  LogUserConnexion
  JWTokenGeneratorFilter
  RequestCacheAwareFilter
  SecurityContextHolderAwareRequestFilter
  AnonymousAuthenticationFilter
  SessionManagementFilter
  ExceptionTranslationFilter
  AuthorizationFilter
]


************************************************************


2024-09-03 19:06:51 - Securing GET /bankaccount/list?id=1
2024-09-03 19:06:51 - User martin.dupont@google.fr is successfully authenticated and has the authorities []
2024-09-03 19:06:51 - User martin.dupont@google.fr is successfully authenticated and has the authorities []
2024-09-03 19:06:51 - Secured GET /bankaccount/list?id=1
2024-09-03 19:06:51 - 

************************************************************

Request received for GET '/category':

org.apache.catalina.connector.RequestFacade@74d0175c

servletPath:/category
pathInfo:null
headers: 
host: localhost:8080
connection: keep-alive
sec-ch-ua: "Chromium";v="128", "Not;A=Brand";v="24", "Google Chrome";v="128"
sec-ch-ua-mobile: ?0
authorization: eyJhbGciOiJIUzI1NiJ9.eyJpc3MiOiJHQlQiLCJzdWIiOiJKV1QgVG9rZW4iLCJ1c2VybmFtZSI6Im1hcnRpbi5kdXBvbnRAZ29vZ2xlLmZyIiwiYXV0aG9yaXRpZXMiOiIiLCJpYXQiOjE3MjUzODMyMDUsImV4cCI6MTcyNTM5MDQwNX0.NZdtnYUXi17lt_5w-EGQYaA04bAxghyAVvj_hGkolWM
user-agent: Mozilla/5.0 (Windows NT 10.0; Win64; x64) AppleWebKit/537.36 (KHTML, like Gecko) Chrome/128.0.0.0 Safari/537.36
content-type: application/json
accept: application/json, text/plain, */*
x-requested-with: XMLHttpRequest
sec-ch-ua-platform: "Windows"
origin: http://localhost:4200
sec-fetch-site: same-site
sec-fetch-mode: cors
sec-fetch-dest: empty
referer: http://localhost:4200/
accept-encoding: gzip, deflate, br, zstd
accept-language: fr-FR,fr;q=0.9,en-US;q=0.8,en;q=0.7
cookie: Idea-7ac81781=c


Security filter chain: [
  DisableEncodeUrlFilter
  WebAsyncManagerIntegrationFilter
  SecurityContextHolderFilter
  HeaderWriterFilter
  CorsFilter
  LogoutFilter
  UsernamePasswordAuthenticationFilter
  RegistrationRequestFilter
  JWTokenValidatorFilter
  BasicAuthenticationFilter
  LogUserConnexion
  JWTokenGeneratorFilter
  RequestCacheAwareFilter
  SecurityContextHolderAwareRequestFilter
  AnonymousAuthenticationFilter
  SessionManagementFilter
  ExceptionTranslationFilter
  AuthorizationFilter
]


************************************************************


2024-09-03 19:06:51 - Securing GET /category
2024-09-03 19:06:51 - 
    select
        b1_0.id,
        b1_0.address,
        b1_0.bank_name,
        b1_0.city,
        b1_0.creation_date,
        b1_0.customer_id,
        b1_0.initial_balance,
        b1_0.reference_account,
        b1_0.type_account,
        b1_0.update_date 
    from
        bank_accounts b1_0 
    where
        b1_0.customer_id=?
2024-09-03 19:06:51 - Secured GET /csvfile?id=1
2024-09-03 19:06:51 - 
    select
        c1_0.id,
        a1_0.customer_id,
        a1_0.id,
        a1_0.name,
        c1_0.creation_date,
        c1_0.email,
        c1_0.first_name,
        c1_0.last_name,
        c1_0.password,
        c1_0.role,
        c1_0.update_date 
    from
        customers c1_0 
    left join
        authorities a1_0 
            on c1_0.id=a1_0.customer_id 
    where
        c1_0.id=?
2024-09-03 19:06:51 - User martin.dupont@google.fr is successfully authenticated and has the authorities []
2024-09-03 19:06:51 - Secured GET /category
2024-09-03 19:06:51 - 
    select
        c1_0.id,
        c1_0.bank_account_id,
        c1_0.creation_date,
        c1_0.file_name,
        c1_0.update_date 
    from
        csv_files c1_0 
    join
        bank_accounts b1_0 
            on b1_0.id=c1_0.bank_account_id 
    where
        b1_0.customer_id=?
2024-09-03 19:06:51 - 
    select
        c1_0.id,
        c1_0.category_name,
        c1_0.category_type 
    from
        categories c1_0
2024-09-03 19:06:51 - 
    select
        b1_0.id,
        b1_0.address,
        b1_0.bank_name,
        b1_0.city,
        b1_0.creation_date,
        b1_0.customer_id,
        c1_0.id,
        a1_0.customer_id,
        a1_0.id,
        a1_0.name,
        c1_0.creation_date,
        c1_0.email,
        c1_0.first_name,
        c1_0.last_name,
        c1_0.password,
        c1_0.role,
        c1_0.update_date,
        b1_0.initial_balance,
        b1_0.reference_account,
        b1_0.type_account,
        b1_0.update_date 
    from
        bank_accounts b1_0 
    join
        customers c1_0 
            on c1_0.id=b1_0.customer_id 
    left join
        authorities a1_0 
            on c1_0.id=a1_0.customer_id 
    where
        b1_0.id=?
2024-09-03 19:06:51 - 
    select
        b1_0.id,
        b1_0.address,
        b1_0.bank_name,
        b1_0.city,
        b1_0.creation_date,
        b1_0.customer_id,
        c1_0.id,
        a1_0.customer_id,
        a1_0.id,
        a1_0.name,
        c1_0.creation_date,
        c1_0.email,
        c1_0.first_name,
        c1_0.last_name,
        c1_0.password,
        c1_0.role,
        c1_0.update_date,
        b1_0.initial_balance,
        b1_0.reference_account,
        b1_0.type_account,
        b1_0.update_date 
    from
        bank_accounts b1_0 
    join
        customers c1_0 
            on c1_0.id=b1_0.customer_id 
    left join
        authorities a1_0 
            on c1_0.id=a1_0.customer_id 
    where
        b1_0.id=?
2024-09-03 19:06:51 - 
    select
        b1_0.id,
        b1_0.address,
        b1_0.bank_name,
        b1_0.city,
        b1_0.creation_date,
        b1_0.customer_id,
        c1_0.id,
        a1_0.customer_id,
        a1_0.id,
        a1_0.name,
        c1_0.creation_date,
        c1_0.email,
        c1_0.first_name,
        c1_0.last_name,
        c1_0.password,
        c1_0.role,
        c1_0.update_date,
        b1_0.initial_balance,
        b1_0.reference_account,
        b1_0.type_account,
        b1_0.update_date 
    from
        bank_accounts b1_0 
    join
        customers c1_0 
            on c1_0.id=b1_0.customer_id 
    left join
        authorities a1_0 
            on c1_0.id=a1_0.customer_id 
    where
        b1_0.id=?
2024-09-03 19:07:02 - 

************************************************************

Request received for GET '/bankaccount/list?id=1':

org.apache.catalina.connector.RequestFacade@25c8ca50

servletPath:/bankaccount/list
pathInfo:null
headers: 
host: localhost:8080
connection: keep-alive
sec-ch-ua: "Chromium";v="128", "Not;A=Brand";v="24", "Google Chrome";v="128"
sec-ch-ua-mobile: ?0
authorization: eyJhbGciOiJIUzI1NiJ9.eyJpc3MiOiJHQlQiLCJzdWIiOiJKV1QgVG9rZW4iLCJ1c2VybmFtZSI6Im1hcnRpbi5kdXBvbnRAZ29vZ2xlLmZyIiwiYXV0aG9yaXRpZXMiOiIiLCJpYXQiOjE3MjUzODMyMDUsImV4cCI6MTcyNTM5MDQwNX0.NZdtnYUXi17lt_5w-EGQYaA04bAxghyAVvj_hGkolWM
user-agent: Mozilla/5.0 (Windows NT 10.0; Win64; x64) AppleWebKit/537.36 (KHTML, like Gecko) Chrome/128.0.0.0 Safari/537.36
content-type: application/json
accept: application/json, text/plain, */*
x-requested-with: XMLHttpRequest
sec-ch-ua-platform: "Windows"
origin: http://localhost:4200
sec-fetch-site: same-site
sec-fetch-mode: cors
sec-fetch-dest: empty
referer: http://localhost:4200/
accept-encoding: gzip, deflate, br, zstd
accept-language: fr-FR,fr;q=0.9,en-US;q=0.8,en;q=0.7
cookie: Idea-7ac81781=c


Security filter chain: [
  DisableEncodeUrlFilter
  WebAsyncManagerIntegrationFilter
  SecurityContextHolderFilter
  HeaderWriterFilter
  CorsFilter
  LogoutFilter
  UsernamePasswordAuthenticationFilter
  RegistrationRequestFilter
  JWTokenValidatorFilter
  BasicAuthenticationFilter
  LogUserConnexion
  JWTokenGeneratorFilter
  RequestCacheAwareFilter
  SecurityContextHolderAwareRequestFilter
  AnonymousAuthenticationFilter
  SessionManagementFilter
  ExceptionTranslationFilter
  AuthorizationFilter
]


************************************************************


2024-09-03 19:07:02 - Securing GET /bankaccount/list?id=1
2024-09-03 19:07:02 - User martin.dupont@google.fr is successfully authenticated and has the authorities []
2024-09-03 19:07:02 - Secured GET /bankaccount/list?id=1
2024-09-03 19:07:02 - 
    select
        b1_0.id,
        b1_0.address,
        b1_0.bank_name,
        b1_0.city,
        b1_0.creation_date,
        b1_0.customer_id,
        b1_0.initial_balance,
        b1_0.reference_account,
        b1_0.type_account,
        b1_0.update_date 
    from
        bank_accounts b1_0 
    where
        b1_0.customer_id=?
2024-09-03 19:07:02 - 
    select
        c1_0.id,
        a1_0.customer_id,
        a1_0.id,
        a1_0.name,
        c1_0.creation_date,
        c1_0.email,
        c1_0.first_name,
        c1_0.last_name,
        c1_0.password,
        c1_0.role,
        c1_0.update_date 
    from
        customers c1_0 
    left join
        authorities a1_0 
            on c1_0.id=a1_0.customer_id 
    where
        c1_0.id=?
2024-09-03 19:07:04 - 

************************************************************

Request received for GET '/statistical?id=1':

org.apache.catalina.connector.RequestFacade@46c56e26

servletPath:/statistical
pathInfo:null
headers: 
host: localhost:8080
connection: keep-alive
sec-ch-ua: "Chromium";v="128", "Not;A=Brand";v="24", "Google Chrome";v="128"
sec-ch-ua-mobile: ?0
authorization: eyJhbGciOiJIUzI1NiJ9.eyJpc3MiOiJHQlQiLCJzdWIiOiJKV1QgVG9rZW4iLCJ1c2VybmFtZSI6Im1hcnRpbi5kdXBvbnRAZ29vZ2xlLmZyIiwiYXV0aG9yaXRpZXMiOiIiLCJpYXQiOjE3MjUzODMyMDUsImV4cCI6MTcyNTM5MDQwNX0.NZdtnYUXi17lt_5w-EGQYaA04bAxghyAVvj_hGkolWM
user-agent: Mozilla/5.0 (Windows NT 10.0; Win64; x64) AppleWebKit/537.36 (KHTML, like Gecko) Chrome/128.0.0.0 Safari/537.36
content-type: application/json
accept: application/json, text/plain, */*
x-requested-with: XMLHttpRequest
sec-ch-ua-platform: "Windows"
origin: http://localhost:4200
sec-fetch-site: same-site
sec-fetch-mode: cors
sec-fetch-dest: empty
referer: http://localhost:4200/
accept-encoding: gzip, deflate, br, zstd
accept-language: fr-FR,fr;q=0.9,en-US;q=0.8,en;q=0.7
cookie: Idea-7ac81781=c


Security filter chain: [
  DisableEncodeUrlFilter
  WebAsyncManagerIntegrationFilter
  SecurityContextHolderFilter
  HeaderWriterFilter
  CorsFilter
  LogoutFilter
  UsernamePasswordAuthenticationFilter
  RegistrationRequestFilter
  JWTokenValidatorFilter
  BasicAuthenticationFilter
  LogUserConnexion
  JWTokenGeneratorFilter
  RequestCacheAwareFilter
  SecurityContextHolderAwareRequestFilter
  AnonymousAuthenticationFilter
  SessionManagementFilter
  ExceptionTranslationFilter
  AuthorizationFilter
]


************************************************************


2024-09-03 19:07:04 - Securing GET /statistical?id=1
2024-09-03 19:07:04 - User martin.dupont@google.fr is successfully authenticated and has the authorities []
2024-09-03 19:07:04 - Secured GET /statistical?id=1
2024-09-03 19:07:04 - 
    select
        c1_0.id,
        c1_0.creation_date,
        c1_0.email,
        c1_0.first_name,
        c1_0.last_name,
        c1_0.password,
        c1_0.role,
        c1_0.update_date 
    from
        customers c1_0 
    where
        c1_0.email=?
2024-09-03 19:07:04 - 
    select
        a1_0.customer_id,
        a1_0.id,
        a1_0.name 
    from
        authorities a1_0 
    where
        a1_0.customer_id=?
2024-09-03 19:07:04 - 
    select
        b1_0.id,
        b1_0.address,
        b1_0.bank_name,
        b1_0.city,
        b1_0.creation_date,
        b1_0.customer_id,
        c1_0.id,
        a1_0.customer_id,
        a1_0.id,
        a1_0.name,
        c1_0.creation_date,
        c1_0.email,
        c1_0.first_name,
        c1_0.last_name,
        c1_0.password,
        c1_0.role,
        c1_0.update_date,
        b1_0.initial_balance,
        b1_0.reference_account,
        b1_0.type_account,
        b1_0.update_date 
    from
        bank_accounts b1_0 
    join
        customers c1_0 
            on c1_0.id=b1_0.customer_id 
    left join
        authorities a1_0 
            on c1_0.id=a1_0.customer_id 
    where
        b1_0.id=?
2024-09-03 19:07:04 - 
    select
        b1_0.id,
        b1_0.bank_account_id,
        b1_0.category_id,
        b1_0.creation_date,
        b1_0.credit,
        b1_0.csv_file_id,
        b1_0.date,
        b1_0.debit,
        b1_0.description,
        b1_0.update_date 
    from
        banking_transactions b1_0 
    where
        b1_0.bank_account_id=?
2024-09-03 19:07:04 - 
    select
        c1_0.id,
        c1_0.category_name,
        c1_0.category_type 
    from
        categories c1_0 
    where
        c1_0.id=?
2024-09-03 19:07:04 - 
    select
        c1_0.id,
        c1_0.bank_account_id,
        b1_0.id,
        b1_0.address,
        b1_0.bank_name,
        b1_0.city,
        b1_0.creation_date,
        b1_0.customer_id,
        c2_0.id,
        a1_0.customer_id,
        a1_0.id,
        a1_0.name,
        c2_0.creation_date,
        c2_0.email,
        c2_0.first_name,
        c2_0.last_name,
        c2_0.password,
        c2_0.role,
        c2_0.update_date,
        b1_0.initial_balance,
        b1_0.reference_account,
        b1_0.type_account,
        b1_0.update_date,
        c1_0.creation_date,
        c1_0.file_name,
        c1_0.update_date 
    from
        csv_files c1_0 
    join
        bank_accounts b1_0 
            on b1_0.id=c1_0.bank_account_id 
    left join
        customers c2_0 
            on c2_0.id=b1_0.customer_id 
    left join
        authorities a1_0 
            on c2_0.id=a1_0.customer_id 
    where
        c1_0.id=?
2024-09-03 19:07:04 - 
    select
        c1_0.id,
        c1_0.category_name,
        c1_0.category_type 
    from
        categories c1_0 
    where
        c1_0.id=?
2024-09-03 19:07:04 - 
    select
        c1_0.id,
        c1_0.category_name,
        c1_0.category_type 
    from
        categories c1_0 
    where
        c1_0.id=?
2024-09-03 19:07:04 - 
    select
        c1_0.id,
        c1_0.category_name,
        c1_0.category_type 
    from
        categories c1_0 
    where
        c1_0.id=?
2024-09-03 19:07:04 - 
    select
        c1_0.id,
        c1_0.category_name,
        c1_0.category_type 
    from
        categories c1_0 
    where
        c1_0.id=?
2024-09-03 19:07:04 - 
    select
        c1_0.id,
        c1_0.category_name,
        c1_0.category_type 
    from
        categories c1_0 
    where
        c1_0.id=?
2024-09-03 19:07:04 - 
    select
        c1_0.id,
        c1_0.category_name,
        c1_0.category_type 
    from
        categories c1_0 
    where
        c1_0.id=?
2024-09-03 19:07:04 - 
    select
        c1_0.id,
        c1_0.category_name,
        c1_0.category_type 
    from
        categories c1_0 
    where
        c1_0.id=?
2024-09-03 19:07:04 - 
    select
        c1_0.id,
        c1_0.category_name,
        c1_0.category_type 
    from
        categories c1_0 
    where
        c1_0.id=?
2024-09-03 19:07:04 - 
    select
        extract(year from b1_0.date),
        extract(month from b1_0.date),
        sum(b1_0.debit),
        sum(b1_0.credit) 
    from
        banking_transactions b1_0 
    where
        b1_0.bank_account_id=? 
    group by
        extract(year from b1_0.date),
        extract(month from b1_0.date) 
    order by
        extract(year from b1_0.date),
        extract(month from b1_0.date)
2024-09-03 19:07:04 - Total Debit Credit Statistical Result: [2022, 10, 3682.31, 2180.90]
2024-09-03 19:07:04 - Generated BalanceTampingStatDTO: com.gbp_v2.SPRGBP.entities.dto.BalanceTampingStatDTO@7102f1e4
2024-09-03 19:07:04 - Generated BalanceTampingStatDTO: com.gbp_v2.SPRGBP.entities.dto.BalanceTampingStatDTO@71036643
2024-09-03 19:07:04 - Generated BalanceTampingStatDTO: com.gbp_v2.SPRGBP.entities.dto.BalanceTampingStatDTO@7103daa2
2024-09-03 19:07:04 - Generated BalanceTampingStatDTO: com.gbp_v2.SPRGBP.entities.dto.BalanceTampingStatDTO@71044f01
2024-09-03 19:07:04 - Generated BalanceTampingStatDTO: com.gbp_v2.SPRGBP.entities.dto.BalanceTampingStatDTO@7104c360
2024-09-03 19:07:04 - Generated BalanceTampingStatDTO: com.gbp_v2.SPRGBP.entities.dto.BalanceTampingStatDTO@710537bf
2024-09-03 19:07:04 - Generated BalanceTampingStatDTO: com.gbp_v2.SPRGBP.entities.dto.BalanceTampingStatDTO@7105ac1e
2024-09-03 19:07:04 - Generated BalanceTampingStatDTO: com.gbp_v2.SPRGBP.entities.dto.BalanceTampingStatDTO@7106207d
2024-09-03 19:07:04 - Generated BalanceTampingStatDTO: com.gbp_v2.SPRGBP.entities.dto.BalanceTampingStatDTO@710694dc
2024-09-03 19:07:04 - Generated BalanceTampingStatDTO: com.gbp_v2.SPRGBP.entities.dto.BalanceTampingStatDTO@385d0188
2024-09-03 19:07:04 - 
    select
        extract(year from b1_0.date),
        extract(month from b1_0.date),
        c1_0.category_name,
        sum(b1_0.credit),
        sum(b1_0.debit) 
    from
        banking_transactions b1_0 
    join
        categories c1_0 
            on c1_0.id=b1_0.category_id 
    where
        b1_0.bank_account_id=? 
    group by
        extract(year from b1_0.date),
        extract(month from b1_0.date),
        c1_0.category_name 
    order by
        extract(year from b1_0.date),
        extract(month from b1_0.date),
        c1_0.category_name
2024-09-03 19:07:04 - Total per Category Debit Credit Statistical Result: [2022, 10, eau, null, 263.22]
2024-09-03 19:07:04 - Total per Category Debit Credit Statistical Result: [2022, 10, electricité, null, 367.41]
2024-09-03 19:07:04 - Total per Category Debit Credit Statistical Result: [2022, 10, essence, null, 120.00]
2024-09-03 19:07:04 - Total per Category Debit Credit Statistical Result: [2022, 10, habillement, null, 69.76]
2024-09-03 19:07:04 - Total per Category Debit Credit Statistical Result: [2022, 10, impôt, null, 2146.86]
2024-09-03 19:07:04 - Total per Category Debit Credit Statistical Result: [2022, 10, nourriture, null, 369.55]
2024-09-03 19:07:04 - Total per Category Debit Credit Statistical Result: [2022, 10, salaire, 2156.34, null]
2024-09-03 19:07:04 - Total per Category Debit Credit Statistical Result: [2022, 10, santé, 24.56, null]
2024-09-03 19:07:04 - Total per Category Debit Credit Statistical Result: [2022, 10, transport, null, 345.51]
2024-09-03 19:07:04 - 
    select
        extract(year from b1_0.date),
        extract(month from b1_0.date),
        count(b1_0.id) 
    from
        banking_transactions b1_0 
    where
        b1_0.bank_account_id=? 
    group by
        extract(year from b1_0.date),
        extract(month from b1_0.date) 
    order by
        extract(year from b1_0.date),
        extract(month from b1_0.date)
2024-09-03 19:07:04 - Total transaction per month and year Result: [2022, 10, 11]
2024-09-03 19:07:04 - Boucle year: 2022, month: 1
2024-09-03 19:07:04 - Generated NbTransactionStatDTOList: []
2024-09-03 19:07:04 - Boucle year: 2022, month: 2
2024-09-03 19:07:04 - Generated NbTransactionStatDTOList: [com.gbp_v2.SPRGBP.entities.dto.NbTransactionStatDTO@29cae0e1]
2024-09-03 19:07:04 - Boucle year: 2022, month: 3
2024-09-03 19:07:04 - Generated NbTransactionStatDTOList: [com.gbp_v2.SPRGBP.entities.dto.NbTransactionStatDTO@29cae0e1, com.gbp_v2.SPRGBP.entities.dto.NbTransactionStatDTO@4ba25373]
2024-09-03 19:07:04 - Boucle year: 2022, month: 4
2024-09-03 19:07:04 - Generated NbTransactionStatDTOList: [com.gbp_v2.SPRGBP.entities.dto.NbTransactionStatDTO@29cae0e1, com.gbp_v2.SPRGBP.entities.dto.NbTransactionStatDTO@4ba25373, com.gbp_v2.SPRGBP.entities.dto.NbTransactionStatDTO@155cc95]
2024-09-03 19:07:04 - Boucle year: 2022, month: 5
2024-09-03 19:07:04 - Generated NbTransactionStatDTOList: [com.gbp_v2.SPRGBP.entities.dto.NbTransactionStatDTO@29cae0e1, com.gbp_v2.SPRGBP.entities.dto.NbTransactionStatDTO@4ba25373, com.gbp_v2.SPRGBP.entities.dto.NbTransactionStatDTO@155cc95, com.gbp_v2.SPRGBP.entities.dto.NbTransactionStatDTO@5b4024a8]
2024-09-03 19:07:04 - Boucle year: 2022, month: 6
2024-09-03 19:07:04 - Generated NbTransactionStatDTOList: [com.gbp_v2.SPRGBP.entities.dto.NbTransactionStatDTO@29cae0e1, com.gbp_v2.SPRGBP.entities.dto.NbTransactionStatDTO@4ba25373, com.gbp_v2.SPRGBP.entities.dto.NbTransactionStatDTO@155cc95, com.gbp_v2.SPRGBP.entities.dto.NbTransactionStatDTO@5b4024a8, com.gbp_v2.SPRGBP.entities.dto.NbTransactionStatDTO@25f31ac9]
2024-09-03 19:07:04 - Boucle year: 2022, month: 7
2024-09-03 19:07:04 - Generated NbTransactionStatDTOList: [com.gbp_v2.SPRGBP.entities.dto.NbTransactionStatDTO@29cae0e1, com.gbp_v2.SPRGBP.entities.dto.NbTransactionStatDTO@4ba25373, com.gbp_v2.SPRGBP.entities.dto.NbTransactionStatDTO@155cc95, com.gbp_v2.SPRGBP.entities.dto.NbTransactionStatDTO@5b4024a8, com.gbp_v2.SPRGBP.entities.dto.NbTransactionStatDTO@25f31ac9, com.gbp_v2.SPRGBP.entities.dto.NbTransactionStatDTO@7c13fccf]
2024-09-03 19:07:04 - Boucle year: 2022, month: 8
2024-09-03 19:07:04 - Generated NbTransactionStatDTOList: [com.gbp_v2.SPRGBP.entities.dto.NbTransactionStatDTO@29cae0e1, com.gbp_v2.SPRGBP.entities.dto.NbTransactionStatDTO@4ba25373, com.gbp_v2.SPRGBP.entities.dto.NbTransactionStatDTO@155cc95, com.gbp_v2.SPRGBP.entities.dto.NbTransactionStatDTO@5b4024a8, com.gbp_v2.SPRGBP.entities.dto.NbTransactionStatDTO@25f31ac9, com.gbp_v2.SPRGBP.entities.dto.NbTransactionStatDTO@7c13fccf, com.gbp_v2.SPRGBP.entities.dto.NbTransactionStatDTO@530da6bc]
2024-09-03 19:07:04 - Boucle year: 2022, month: 9
2024-09-03 19:07:04 - Generated NbTransactionStatDTOList: [com.gbp_v2.SPRGBP.entities.dto.NbTransactionStatDTO@29cae0e1, com.gbp_v2.SPRGBP.entities.dto.NbTransactionStatDTO@4ba25373, com.gbp_v2.SPRGBP.entities.dto.NbTransactionStatDTO@155cc95, com.gbp_v2.SPRGBP.entities.dto.NbTransactionStatDTO@5b4024a8, com.gbp_v2.SPRGBP.entities.dto.NbTransactionStatDTO@25f31ac9, com.gbp_v2.SPRGBP.entities.dto.NbTransactionStatDTO@7c13fccf, com.gbp_v2.SPRGBP.entities.dto.NbTransactionStatDTO@530da6bc, com.gbp_v2.SPRGBP.entities.dto.NbTransactionStatDTO@9b2ad11]
2024-09-03 19:07:04 - Boucle year: 2022, month: 10
2024-09-03 19:07:04 - Generated NbTransactionStatDTOList: [com.gbp_v2.SPRGBP.entities.dto.NbTransactionStatDTO@29cae0e1, com.gbp_v2.SPRGBP.entities.dto.NbTransactionStatDTO@4ba25373, com.gbp_v2.SPRGBP.entities.dto.NbTransactionStatDTO@155cc95, com.gbp_v2.SPRGBP.entities.dto.NbTransactionStatDTO@5b4024a8, com.gbp_v2.SPRGBP.entities.dto.NbTransactionStatDTO@25f31ac9, com.gbp_v2.SPRGBP.entities.dto.NbTransactionStatDTO@7c13fccf, com.gbp_v2.SPRGBP.entities.dto.NbTransactionStatDTO@530da6bc, com.gbp_v2.SPRGBP.entities.dto.NbTransactionStatDTO@9b2ad11, com.gbp_v2.SPRGBP.entities.dto.NbTransactionStatDTO@34aacbbc]
2024-09-03 19:07:18 - 

************************************************************

Request received for OPTIONS '/bankaccount?id=1':

org.apache.catalina.connector.RequestFacade@5b32d01a

servletPath:/bankaccount
pathInfo:null
headers: 
host: localhost:8080
connection: keep-alive
accept: */*
access-control-request-method: GET
access-control-request-headers: authorization,content-type,x-requested-with
origin: http://localhost:4200
user-agent: Mozilla/5.0 (Windows NT 10.0; Win64; x64) AppleWebKit/537.36 (KHTML, like Gecko) Chrome/128.0.0.0 Safari/537.36
sec-fetch-mode: cors
sec-fetch-site: same-site
sec-fetch-dest: empty
referer: http://localhost:4200/
accept-encoding: gzip, deflate, br, zstd
accept-language: fr-FR,fr;q=0.9,en-US;q=0.8,en;q=0.7


Security filter chain: [
  DisableEncodeUrlFilter
  WebAsyncManagerIntegrationFilter
  SecurityContextHolderFilter
  HeaderWriterFilter
  CorsFilter
  LogoutFilter
  UsernamePasswordAuthenticationFilter
  RegistrationRequestFilter
  JWTokenValidatorFilter
  BasicAuthenticationFilter
  LogUserConnexion
  JWTokenGeneratorFilter
  RequestCacheAwareFilter
  SecurityContextHolderAwareRequestFilter
  AnonymousAuthenticationFilter
  SessionManagementFilter
  ExceptionTranslationFilter
  AuthorizationFilter
]


************************************************************


2024-09-03 19:07:18 - Securing OPTIONS /bankaccount?id=1
2024-09-03 19:07:18 - 

************************************************************

Request received for GET '/bankaccount?id=1':

org.apache.catalina.connector.RequestFacade@2c7ff87b

servletPath:/bankaccount
pathInfo:null
headers: 
host: localhost:8080
connection: keep-alive
sec-ch-ua: "Chromium";v="128", "Not;A=Brand";v="24", "Google Chrome";v="128"
sec-ch-ua-mobile: ?0
authorization: eyJhbGciOiJIUzI1NiJ9.eyJpc3MiOiJHQlQiLCJzdWIiOiJKV1QgVG9rZW4iLCJ1c2VybmFtZSI6Im1hcnRpbi5kdXBvbnRAZ29vZ2xlLmZyIiwiYXV0aG9yaXRpZXMiOiIiLCJpYXQiOjE3MjUzODMyMDUsImV4cCI6MTcyNTM5MDQwNX0.NZdtnYUXi17lt_5w-EGQYaA04bAxghyAVvj_hGkolWM
user-agent: Mozilla/5.0 (Windows NT 10.0; Win64; x64) AppleWebKit/537.36 (KHTML, like Gecko) Chrome/128.0.0.0 Safari/537.36
content-type: application/json
accept: application/json, text/plain, */*
x-requested-with: XMLHttpRequest
sec-ch-ua-platform: "Windows"
origin: http://localhost:4200
sec-fetch-site: same-site
sec-fetch-mode: cors
sec-fetch-dest: empty
referer: http://localhost:4200/
accept-encoding: gzip, deflate, br, zstd
accept-language: fr-FR,fr;q=0.9,en-US;q=0.8,en;q=0.7
cookie: Idea-7ac81781=c


Security filter chain: [
  DisableEncodeUrlFilter
  WebAsyncManagerIntegrationFilter
  SecurityContextHolderFilter
  HeaderWriterFilter
  CorsFilter
  LogoutFilter
  UsernamePasswordAuthenticationFilter
  RegistrationRequestFilter
  JWTokenValidatorFilter
  BasicAuthenticationFilter
  LogUserConnexion
  JWTokenGeneratorFilter
  RequestCacheAwareFilter
  SecurityContextHolderAwareRequestFilter
  AnonymousAuthenticationFilter
  SessionManagementFilter
  ExceptionTranslationFilter
  AuthorizationFilter
]


************************************************************


2024-09-03 19:07:18 - Securing GET /bankaccount?id=1
2024-09-03 19:07:18 - User martin.dupont@google.fr is successfully authenticated and has the authorities []
2024-09-03 19:07:18 - Secured GET /bankaccount?id=1
2024-09-03 19:07:18 - 
    select
        b1_0.id,
        b1_0.address,
        b1_0.bank_name,
        b1_0.city,
        b1_0.creation_date,
        b1_0.customer_id,
        b1_0.initial_balance,
        b1_0.reference_account,
        b1_0.type_account,
        b1_0.update_date 
    from
        bank_accounts b1_0 
    where
        b1_0.customer_id=?
2024-09-03 19:07:18 - 
    select
        c1_0.id,
        a1_0.customer_id,
        a1_0.id,
        a1_0.name,
        c1_0.creation_date,
        c1_0.email,
        c1_0.first_name,
        c1_0.last_name,
        c1_0.password,
        c1_0.role,
        c1_0.update_date 
    from
        customers c1_0 
    left join
        authorities a1_0 
            on c1_0.id=a1_0.customer_id 
    where
        c1_0.id=?
2024-09-03 19:07:27 - 

************************************************************

Request received for GET '/csvfile?id=1':

org.apache.catalina.connector.RequestFacade@def96f3

servletPath:/csvfile
pathInfo:null
headers: 
host: localhost:8080
connection: keep-alive
sec-ch-ua: "Chromium";v="128", "Not;A=Brand";v="24", "Google Chrome";v="128"
sec-ch-ua-mobile: ?0
authorization: eyJhbGciOiJIUzI1NiJ9.eyJpc3MiOiJHQlQiLCJzdWIiOiJKV1QgVG9rZW4iLCJ1c2VybmFtZSI6Im1hcnRpbi5kdXBvbnRAZ29vZ2xlLmZyIiwiYXV0aG9yaXRpZXMiOiIiLCJpYXQiOjE3MjUzODMyMDUsImV4cCI6MTcyNTM5MDQwNX0.NZdtnYUXi17lt_5w-EGQYaA04bAxghyAVvj_hGkolWM
user-agent: Mozilla/5.0 (Windows NT 10.0; Win64; x64) AppleWebKit/537.36 (KHTML, like Gecko) Chrome/128.0.0.0 Safari/537.36
content-type: application/json
accept: application/json, text/plain, */*
x-requested-with: XMLHttpRequest
sec-ch-ua-platform: "Windows"
origin: http://localhost:4200
sec-fetch-site: same-site
sec-fetch-mode: cors
sec-fetch-dest: empty
referer: http://localhost:4200/
accept-encoding: gzip, deflate, br, zstd
accept-language: fr-FR,fr;q=0.9,en-US;q=0.8,en;q=0.7
cookie: Idea-7ac81781=c


Security filter chain: [
  DisableEncodeUrlFilter
  WebAsyncManagerIntegrationFilter
  SecurityContextHolderFilter
  HeaderWriterFilter
  CorsFilter
  LogoutFilter
  UsernamePasswordAuthenticationFilter
  RegistrationRequestFilter
  JWTokenValidatorFilter
  BasicAuthenticationFilter
  LogUserConnexion
  JWTokenGeneratorFilter
  RequestCacheAwareFilter
  SecurityContextHolderAwareRequestFilter
  AnonymousAuthenticationFilter
  SessionManagementFilter
  ExceptionTranslationFilter
  AuthorizationFilter
]


************************************************************


2024-09-03 19:07:27 - Securing GET /csvfile?id=1
2024-09-03 19:07:27 - 

************************************************************

Request received for GET '/bankaccount/list?id=1':

org.apache.catalina.connector.RequestFacade@379358cc

servletPath:/bankaccount/list
pathInfo:null
headers: 
host: localhost:8080
connection: keep-alive
sec-ch-ua: "Chromium";v="128", "Not;A=Brand";v="24", "Google Chrome";v="128"
sec-ch-ua-mobile: ?0
authorization: eyJhbGciOiJIUzI1NiJ9.eyJpc3MiOiJHQlQiLCJzdWIiOiJKV1QgVG9rZW4iLCJ1c2VybmFtZSI6Im1hcnRpbi5kdXBvbnRAZ29vZ2xlLmZyIiwiYXV0aG9yaXRpZXMiOiIiLCJpYXQiOjE3MjUzODMyMDUsImV4cCI6MTcyNTM5MDQwNX0.NZdtnYUXi17lt_5w-EGQYaA04bAxghyAVvj_hGkolWM
user-agent: Mozilla/5.0 (Windows NT 10.0; Win64; x64) AppleWebKit/537.36 (KHTML, like Gecko) Chrome/128.0.0.0 Safari/537.36
content-type: application/json
accept: application/json, text/plain, */*
x-requested-with: XMLHttpRequest
sec-ch-ua-platform: "Windows"
origin: http://localhost:4200
sec-fetch-site: same-site
sec-fetch-mode: cors
sec-fetch-dest: empty
referer: http://localhost:4200/
accept-encoding: gzip, deflate, br, zstd
accept-language: fr-FR,fr;q=0.9,en-US;q=0.8,en;q=0.7
cookie: Idea-7ac81781=c


Security filter chain: [
  DisableEncodeUrlFilter
  WebAsyncManagerIntegrationFilter
  SecurityContextHolderFilter
  HeaderWriterFilter
  CorsFilter
  LogoutFilter
  UsernamePasswordAuthenticationFilter
  RegistrationRequestFilter
  JWTokenValidatorFilter
  BasicAuthenticationFilter
  LogUserConnexion
  JWTokenGeneratorFilter
  RequestCacheAwareFilter
  SecurityContextHolderAwareRequestFilter
  AnonymousAuthenticationFilter
  SessionManagementFilter
  ExceptionTranslationFilter
  AuthorizationFilter
]


************************************************************


2024-09-03 19:07:27 - Securing GET /bankaccount/list?id=1
2024-09-03 19:07:27 - 

************************************************************

Request received for GET '/category':

org.apache.catalina.connector.RequestFacade@24fc75d5

servletPath:/category
pathInfo:null
headers: 
host: localhost:8080
connection: keep-alive
sec-ch-ua: "Chromium";v="128", "Not;A=Brand";v="24", "Google Chrome";v="128"
sec-ch-ua-mobile: ?0
authorization: eyJhbGciOiJIUzI1NiJ9.eyJpc3MiOiJHQlQiLCJzdWIiOiJKV1QgVG9rZW4iLCJ1c2VybmFtZSI6Im1hcnRpbi5kdXBvbnRAZ29vZ2xlLmZyIiwiYXV0aG9yaXRpZXMiOiIiLCJpYXQiOjE3MjUzODMyMDUsImV4cCI6MTcyNTM5MDQwNX0.NZdtnYUXi17lt_5w-EGQYaA04bAxghyAVvj_hGkolWM
user-agent: Mozilla/5.0 (Windows NT 10.0; Win64; x64) AppleWebKit/537.36 (KHTML, like Gecko) Chrome/128.0.0.0 Safari/537.36
content-type: application/json
accept: application/json, text/plain, */*
x-requested-with: XMLHttpRequest
sec-ch-ua-platform: "Windows"
origin: http://localhost:4200
sec-fetch-site: same-site
sec-fetch-mode: cors
sec-fetch-dest: empty
referer: http://localhost:4200/
accept-encoding: gzip, deflate, br, zstd
accept-language: fr-FR,fr;q=0.9,en-US;q=0.8,en;q=0.7
cookie: Idea-7ac81781=c


Security filter chain: [
  DisableEncodeUrlFilter
  WebAsyncManagerIntegrationFilter
  SecurityContextHolderFilter
  HeaderWriterFilter
  CorsFilter
  LogoutFilter
  UsernamePasswordAuthenticationFilter
  RegistrationRequestFilter
  JWTokenValidatorFilter
  BasicAuthenticationFilter
  LogUserConnexion
  JWTokenGeneratorFilter
  RequestCacheAwareFilter
  SecurityContextHolderAwareRequestFilter
  AnonymousAuthenticationFilter
  SessionManagementFilter
  ExceptionTranslationFilter
  AuthorizationFilter
]


************************************************************


2024-09-03 19:07:27 - User martin.dupont@google.fr is successfully authenticated and has the authorities []
2024-09-03 19:07:27 - Securing GET /category
2024-09-03 19:07:27 - User martin.dupont@google.fr is successfully authenticated and has the authorities []
2024-09-03 19:07:27 - Secured GET /csvfile?id=1
2024-09-03 19:07:27 - Secured GET /bankaccount/list?id=1
2024-09-03 19:07:27 - 
    select
        c1_0.id,
        c1_0.bank_account_id,
        c1_0.creation_date,
        c1_0.file_name,
        c1_0.update_date 
    from
        csv_files c1_0 
    join
        bank_accounts b1_0 
            on b1_0.id=c1_0.bank_account_id 
    where
        b1_0.customer_id=?
2024-09-03 19:07:27 - 
    select
        b1_0.id,
        b1_0.address,
        b1_0.bank_name,
        b1_0.city,
        b1_0.creation_date,
        b1_0.customer_id,
        b1_0.initial_balance,
        b1_0.reference_account,
        b1_0.type_account,
        b1_0.update_date 
    from
        bank_accounts b1_0 
    where
        b1_0.customer_id=?
2024-09-03 19:07:27 - 
    select
        c1_0.id,
        a1_0.customer_id,
        a1_0.id,
        a1_0.name,
        c1_0.creation_date,
        c1_0.email,
        c1_0.first_name,
        c1_0.last_name,
        c1_0.password,
        c1_0.role,
        c1_0.update_date 
    from
        customers c1_0 
    left join
        authorities a1_0 
            on c1_0.id=a1_0.customer_id 
    where
        c1_0.id=?
2024-09-03 19:07:27 - 
    select
        b1_0.id,
        b1_0.address,
        b1_0.bank_name,
        b1_0.city,
        b1_0.creation_date,
        b1_0.customer_id,
        c1_0.id,
        a1_0.customer_id,
        a1_0.id,
        a1_0.name,
        c1_0.creation_date,
        c1_0.email,
        c1_0.first_name,
        c1_0.last_name,
        c1_0.password,
        c1_0.role,
        c1_0.update_date,
        b1_0.initial_balance,
        b1_0.reference_account,
        b1_0.type_account,
        b1_0.update_date 
    from
        bank_accounts b1_0 
    join
        customers c1_0 
            on c1_0.id=b1_0.customer_id 
    left join
        authorities a1_0 
            on c1_0.id=a1_0.customer_id 
    where
        b1_0.id=?
2024-09-03 19:07:27 - User martin.dupont@google.fr is successfully authenticated and has the authorities []
2024-09-03 19:07:27 - 
    select
        b1_0.id,
        b1_0.address,
        b1_0.bank_name,
        b1_0.city,
        b1_0.creation_date,
        b1_0.customer_id,
        c1_0.id,
        a1_0.customer_id,
        a1_0.id,
        a1_0.name,
        c1_0.creation_date,
        c1_0.email,
        c1_0.first_name,
        c1_0.last_name,
        c1_0.password,
        c1_0.role,
        c1_0.update_date,
        b1_0.initial_balance,
        b1_0.reference_account,
        b1_0.type_account,
        b1_0.update_date 
    from
        bank_accounts b1_0 
    join
        customers c1_0 
            on c1_0.id=b1_0.customer_id 
    left join
        authorities a1_0 
            on c1_0.id=a1_0.customer_id 
    where
        b1_0.id=?
2024-09-03 19:07:27 - Secured GET /category
2024-09-03 19:07:27 - 
    select
        b1_0.id,
        b1_0.address,
        b1_0.bank_name,
        b1_0.city,
        b1_0.creation_date,
        b1_0.customer_id,
        c1_0.id,
        a1_0.customer_id,
        a1_0.id,
        a1_0.name,
        c1_0.creation_date,
        c1_0.email,
        c1_0.first_name,
        c1_0.last_name,
        c1_0.password,
        c1_0.role,
        c1_0.update_date,
        b1_0.initial_balance,
        b1_0.reference_account,
        b1_0.type_account,
        b1_0.update_date 
    from
        bank_accounts b1_0 
    join
        customers c1_0 
            on c1_0.id=b1_0.customer_id 
    left join
        authorities a1_0 
            on c1_0.id=a1_0.customer_id 
    where
        b1_0.id=?
2024-09-03 19:07:27 - 
    select
        c1_0.id,
        c1_0.category_name,
        c1_0.category_type 
    from
        categories c1_0
2024-09-03 19:07:32 - 

************************************************************

Request received for GET '/bankaccount/list?id=1':

org.apache.catalina.connector.RequestFacade@429b2bbe

servletPath:/bankaccount/list
pathInfo:null
headers: 
host: localhost:8080
connection: keep-alive
sec-ch-ua: "Chromium";v="128", "Not;A=Brand";v="24", "Google Chrome";v="128"
sec-ch-ua-mobile: ?0
authorization: eyJhbGciOiJIUzI1NiJ9.eyJpc3MiOiJHQlQiLCJzdWIiOiJKV1QgVG9rZW4iLCJ1c2VybmFtZSI6Im1hcnRpbi5kdXBvbnRAZ29vZ2xlLmZyIiwiYXV0aG9yaXRpZXMiOiIiLCJpYXQiOjE3MjUzODMyMDUsImV4cCI6MTcyNTM5MDQwNX0.NZdtnYUXi17lt_5w-EGQYaA04bAxghyAVvj_hGkolWM
user-agent: Mozilla/5.0 (Windows NT 10.0; Win64; x64) AppleWebKit/537.36 (KHTML, like Gecko) Chrome/128.0.0.0 Safari/537.36
content-type: application/json
accept: application/json, text/plain, */*
x-requested-with: XMLHttpRequest
sec-ch-ua-platform: "Windows"
origin: http://localhost:4200
sec-fetch-site: same-site
sec-fetch-mode: cors
sec-fetch-dest: empty
referer: http://localhost:4200/
accept-encoding: gzip, deflate, br, zstd
accept-language: fr-FR,fr;q=0.9,en-US;q=0.8,en;q=0.7
cookie: Idea-7ac81781=c


Security filter chain: [
  DisableEncodeUrlFilter
  WebAsyncManagerIntegrationFilter
  SecurityContextHolderFilter
  HeaderWriterFilter
  CorsFilter
  LogoutFilter
  UsernamePasswordAuthenticationFilter
  RegistrationRequestFilter
  JWTokenValidatorFilter
  BasicAuthenticationFilter
  LogUserConnexion
  JWTokenGeneratorFilter
  RequestCacheAwareFilter
  SecurityContextHolderAwareRequestFilter
  AnonymousAuthenticationFilter
  SessionManagementFilter
  ExceptionTranslationFilter
  AuthorizationFilter
]


************************************************************


2024-09-03 19:07:32 - Securing GET /bankaccount/list?id=1
2024-09-03 19:07:32 - User martin.dupont@google.fr is successfully authenticated and has the authorities []
2024-09-03 19:07:32 - Secured GET /bankaccount/list?id=1
2024-09-03 19:07:32 - 
    select
        b1_0.id,
        b1_0.address,
        b1_0.bank_name,
        b1_0.city,
        b1_0.creation_date,
        b1_0.customer_id,
        b1_0.initial_balance,
        b1_0.reference_account,
        b1_0.type_account,
        b1_0.update_date 
    from
        bank_accounts b1_0 
    where
        b1_0.customer_id=?
2024-09-03 19:07:32 - 
    select
        c1_0.id,
        a1_0.customer_id,
        a1_0.id,
        a1_0.name,
        c1_0.creation_date,
        c1_0.email,
        c1_0.first_name,
        c1_0.last_name,
        c1_0.password,
        c1_0.role,
        c1_0.update_date 
    from
        customers c1_0 
    left join
        authorities a1_0 
            on c1_0.id=a1_0.customer_id 
    where
        c1_0.id=?
2024-09-03 19:07:40 - 

************************************************************

Request received for OPTIONS '/bankingtransaction?id=2':

org.apache.catalina.connector.RequestFacade@4a75eb31

servletPath:/bankingtransaction
pathInfo:null
headers: 
host: localhost:8080
connection: keep-alive
accept: */*
access-control-request-method: GET
access-control-request-headers: authorization,content-type,x-requested-with
origin: http://localhost:4200
user-agent: Mozilla/5.0 (Windows NT 10.0; Win64; x64) AppleWebKit/537.36 (KHTML, like Gecko) Chrome/128.0.0.0 Safari/537.36
sec-fetch-mode: cors
sec-fetch-site: same-site
sec-fetch-dest: empty
referer: http://localhost:4200/
accept-encoding: gzip, deflate, br, zstd
accept-language: fr-FR,fr;q=0.9,en-US;q=0.8,en;q=0.7


Security filter chain: [
  DisableEncodeUrlFilter
  WebAsyncManagerIntegrationFilter
  SecurityContextHolderFilter
  HeaderWriterFilter
  CorsFilter
  LogoutFilter
  UsernamePasswordAuthenticationFilter
  RegistrationRequestFilter
  JWTokenValidatorFilter
  BasicAuthenticationFilter
  LogUserConnexion
  JWTokenGeneratorFilter
  RequestCacheAwareFilter
  SecurityContextHolderAwareRequestFilter
  AnonymousAuthenticationFilter
  SessionManagementFilter
  ExceptionTranslationFilter
  AuthorizationFilter
]


************************************************************


2024-09-03 19:07:40 - Securing OPTIONS /bankingtransaction?id=2
2024-09-03 19:07:40 - 

************************************************************

Request received for GET '/bankingtransaction?id=2':

org.apache.catalina.connector.RequestFacade@1d812856

servletPath:/bankingtransaction
pathInfo:null
headers: 
host: localhost:8080
connection: keep-alive
sec-ch-ua: "Chromium";v="128", "Not;A=Brand";v="24", "Google Chrome";v="128"
sec-ch-ua-mobile: ?0
authorization: eyJhbGciOiJIUzI1NiJ9.eyJpc3MiOiJHQlQiLCJzdWIiOiJKV1QgVG9rZW4iLCJ1c2VybmFtZSI6Im1hcnRpbi5kdXBvbnRAZ29vZ2xlLmZyIiwiYXV0aG9yaXRpZXMiOiIiLCJpYXQiOjE3MjUzODMyMDUsImV4cCI6MTcyNTM5MDQwNX0.NZdtnYUXi17lt_5w-EGQYaA04bAxghyAVvj_hGkolWM
user-agent: Mozilla/5.0 (Windows NT 10.0; Win64; x64) AppleWebKit/537.36 (KHTML, like Gecko) Chrome/128.0.0.0 Safari/537.36
content-type: application/json
accept: application/json, text/plain, */*
x-requested-with: XMLHttpRequest
sec-ch-ua-platform: "Windows"
origin: http://localhost:4200
sec-fetch-site: same-site
sec-fetch-mode: cors
sec-fetch-dest: empty
referer: http://localhost:4200/
accept-encoding: gzip, deflate, br, zstd
accept-language: fr-FR,fr;q=0.9,en-US;q=0.8,en;q=0.7
cookie: Idea-7ac81781=c


Security filter chain: [
  DisableEncodeUrlFilter
  WebAsyncManagerIntegrationFilter
  SecurityContextHolderFilter
  HeaderWriterFilter
  CorsFilter
  LogoutFilter
  UsernamePasswordAuthenticationFilter
  RegistrationRequestFilter
  JWTokenValidatorFilter
  BasicAuthenticationFilter
  LogUserConnexion
  JWTokenGeneratorFilter
  RequestCacheAwareFilter
  SecurityContextHolderAwareRequestFilter
  AnonymousAuthenticationFilter
  SessionManagementFilter
  ExceptionTranslationFilter
  AuthorizationFilter
]


************************************************************


2024-09-03 19:07:40 - Securing GET /bankingtransaction?id=2
2024-09-03 19:07:40 - User martin.dupont@google.fr is successfully authenticated and has the authorities []
2024-09-03 19:07:40 - Secured GET /bankingtransaction?id=2
2024-09-03 19:07:40 - 
    select
        b1_0.id,
        b1_0.bank_account_id,
        b1_0.category_id,
        b1_0.creation_date,
        b1_0.credit,
        b1_0.csv_file_id,
        b1_0.date,
        b1_0.debit,
        b1_0.description,
        b1_0.update_date 
    from
        banking_transactions b1_0 
    where
        b1_0.bank_account_id=?
2024-09-03 19:07:40 - 
    select
        b1_0.id,
        b1_0.address,
        b1_0.bank_name,
        b1_0.city,
        b1_0.creation_date,
        b1_0.customer_id,
        c1_0.id,
        a1_0.customer_id,
        a1_0.id,
        a1_0.name,
        c1_0.creation_date,
        c1_0.email,
        c1_0.first_name,
        c1_0.last_name,
        c1_0.password,
        c1_0.role,
        c1_0.update_date,
        b1_0.initial_balance,
        b1_0.reference_account,
        b1_0.type_account,
        b1_0.update_date 
    from
        bank_accounts b1_0 
    join
        customers c1_0 
            on c1_0.id=b1_0.customer_id 
    left join
        authorities a1_0 
            on c1_0.id=a1_0.customer_id 
    where
        b1_0.id=?
2024-09-03 19:07:40 - 
    select
        c1_0.id,
        c1_0.category_name,
        c1_0.category_type 
    from
        categories c1_0 
    where
        c1_0.id=?
2024-09-03 19:07:40 - 
    select
        c1_0.id,
        c1_0.bank_account_id,
        b1_0.id,
        b1_0.address,
        b1_0.bank_name,
        b1_0.city,
        b1_0.creation_date,
        b1_0.customer_id,
        c2_0.id,
        a1_0.customer_id,
        a1_0.id,
        a1_0.name,
        c2_0.creation_date,
        c2_0.email,
        c2_0.first_name,
        c2_0.last_name,
        c2_0.password,
        c2_0.role,
        c2_0.update_date,
        b1_0.initial_balance,
        b1_0.reference_account,
        b1_0.type_account,
        b1_0.update_date,
        c1_0.creation_date,
        c1_0.file_name,
        c1_0.update_date 
    from
        csv_files c1_0 
    join
        bank_accounts b1_0 
            on b1_0.id=c1_0.bank_account_id 
    left join
        customers c2_0 
            on c2_0.id=b1_0.customer_id 
    left join
        authorities a1_0 
            on c2_0.id=a1_0.customer_id 
    where
        c1_0.id=?
2024-09-03 19:10:16 - Closing JPA EntityManagerFactory for persistence unit 'default'
2024-09-03 19:10:16 - HikariPool-1 - Shutdown initiated...
2024-09-03 19:10:16 - HikariPool-1 - Shutdown completed.
